(module SW_PUSH_E-SWITCH_TL2285 (layer F.Cu) (tedit 5DA075A7)
  (fp_text reference REF** (at 3.175 3.175) (layer F.SilkS)
    (effects (font (size 1 1) (thickness 0.15)))
  )
  (fp_text value SW_PUSH_E-SWITCH_TL2285 (at 3.175 1.905) (layer F.Fab)
    (effects (font (size 1 1) (thickness 0.15)))
  )
  (fp_line (start -1.778 -1.778) (end 6.858 -1.778) (layer F.SilkS) (width 0.15))
  (fp_line (start 6.858 -1.778) (end 6.858 6.858) (layer F.SilkS) (width 0.15))
  (fp_line (start 6.858 6.858) (end -1.778 6.858) (layer F.SilkS) (width 0.15))
  (fp_line (start -1.778 6.858) (end -1.778 -1.778) (layer F.SilkS) (width 0.15))
  (pad 1 thru_hole circle (at 0 0) (size 1.524 1.524) (drill 0.762) (layers *.Cu *.Mask F.SilkS))
  (pad 2 thru_hole circle (at 2.54 0) (size 1.524 1.524) (drill 0.762) (layers *.Cu *.Mask F.SilkS))
  (pad 3 thru_hole circle (at 5.08 0) (size 1.524 1.524) (drill 0.762) (layers *.Cu *.Mask F.SilkS))
  (pad 4 thru_hole circle (at 0 5.08) (size 1.524 1.524) (drill 0.762) (layers *.Cu *.Mask F.SilkS))
  (pad 5 thru_hole circle (at 2.54 5.08) (size 1.524 1.524) (drill 0.762) (layers *.Cu *.Mask F.SilkS))
  (pad 6 thru_hole circle (at 5.08 5.08) (size 1.524 1.524) (drill 0.762) (layers *.Cu *.Mask F.SilkS))
)
