(module combiplast-CP-Z-73 (layer F.Cu) (tedit 5A35434E)
  (fp_text reference REF** (at 0 1.143) (layer F.SilkS)
    (effects (font (size 1 1) (thickness 0.15)))
  )
  (fp_text value combiplast-CP-Z-73 (at 0 -1.397) (layer F.Fab)
    (effects (font (size 1 1) (thickness 0.15)))
  )
  (fp_circle (center -16.002 30.734) (end -16.002 27.7495) (layer F.SilkS) (width 0.15))
  (fp_circle (center -16.002 30.734) (end -16.002 29.464) (layer F.SilkS) (width 0.15))
  (fp_circle (center 16.002 30.734) (end 16.002 27.7495) (layer F.SilkS) (width 0.15))
  (fp_circle (center 16.002 30.734) (end 16.002 29.2735) (layer F.SilkS) (width 0.15))
  (fp_circle (center 16.002 -30.734) (end 16.002 -33.7185) (layer F.SilkS) (width 0.15))
  (fp_circle (center 16.002 -30.734) (end 16.002 -32.004) (layer F.SilkS) (width 0.15))
  (fp_circle (center -16.002 -30.6705) (end -16.002 -33.655) (layer F.SilkS) (width 0.15))
  (fp_circle (center -16.002 -30.734) (end -16.002 -31.9405) (layer F.SilkS) (width 0.15))
  (fp_circle (center 45.5295 -30.734) (end 45.593 -33.7185) (layer F.SilkS) (width 0.15))
  (fp_circle (center 45.5295 30.734) (end 45.5295 27.7495) (layer F.SilkS) (width 0.15))
  (fp_circle (center -45.466 30.734) (end -45.466 27.7495) (layer F.SilkS) (width 0.15))
  (fp_circle (center -45.5295 -30.734) (end -45.5295 -33.7185) (layer F.SilkS) (width 0.15))
  (fp_circle (center -20.32 -30.5435) (end -20.32 -30.5435) (layer F.SilkS) (width 0.15))
  (fp_line (start -49.95 -35.05) (end 49.95 -35.05) (layer F.SilkS) (width 0.15))
  (fp_line (start 49.95 -35.05) (end 49.95 35.05) (layer F.SilkS) (width 0.15))
  (fp_line (start 49.95 35.05) (end -49.95 35.05) (layer F.SilkS) (width 0.15))
  (fp_line (start -49.95 35.05) (end -49.95 -35.05) (layer F.SilkS) (width 0.15))
  (fp_line (start -54.65 -39.6) (end 54.65 -39.6) (layer F.SilkS) (width 0.15))
  (fp_line (start 54.65 -39.6) (end 54.65 39.6) (layer F.SilkS) (width 0.15))
  (fp_line (start 54.65 39.6) (end -54.65 39.6) (layer F.SilkS) (width 0.15))
  (fp_line (start -54.65 39.6) (end -54.65 -39.6) (layer F.SilkS) (width 0.15))
)
