(module D9MG-IRC (layer F.Cu) (tedit 5E505B8E)
  (fp_text reference REF** (at 0 0.5) (layer F.SilkS)
    (effects (font (size 1 1) (thickness 0.15)))
  )
  (fp_text value D9MG-IRC (at 0 -0.5) (layer F.Fab)
    (effects (font (size 1 1) (thickness 0.15)))
  )
  (fp_text user "Height 16.5" (at 93.98 31.115) (layer F.SilkS)
    (effects (font (size 1 1) (thickness 0.15)))
  )
  (fp_line (start 88.9 38.735) (end 88.9 23.495) (layer F.SilkS) (width 0.15))
  (fp_text user "Height 43" (at 93.345 19.685) (layer F.SilkS)
    (effects (font (size 1 1) (thickness 0.15)))
  )
  (fp_line (start 88.9 22.225) (end 88.9 16.51) (layer F.SilkS) (width 0.15))
  (fp_text user "Height 47" (at 93.345 -7.62) (layer F.SilkS)
    (effects (font (size 1 1) (thickness 0.15)))
  )
  (fp_line (start 88.9 -28.575) (end 88.9 15.24) (layer F.SilkS) (width 0.15))
  (fp_text user "Height 43" (at 93.345 -32.385) (layer F.SilkS)
    (effects (font (size 1 1) (thickness 0.15)))
  )
  (fp_line (start 88.9 -35.56) (end 88.9 -29.845) (layer F.SilkS) (width 0.15))
  (fp_text user "Height 16.5" (at 93.98 -43.18) (layer F.SilkS)
    (effects (font (size 1 1) (thickness 0.15)))
  )
  (fp_line (start 88.9 -36.83) (end 88.9 -50.165) (layer F.SilkS) (width 0.15))
  (fp_line (start -87.63 -29.21) (end 88.9 -29.21) (layer F.SilkS) (width 0.15))
  (fp_line (start 88.9 15.875) (end -87.63 15.875) (layer F.SilkS) (width 0.15))
  (fp_line (start -87.63 22.86) (end 88.9 22.86) (layer F.SilkS) (width 0.15))
  (fp_line (start -87.63 -36.195) (end 88.9 -36.195) (layer F.SilkS) (width 0.15))
  (fp_line (start -77.47 -48.26) (end -77.47 36.83) (layer F.SilkS) (width 0.15))
  (fp_line (start -77.47 36.83) (end 77.47 36.83) (layer F.SilkS) (width 0.15))
  (fp_line (start 77.47 36.83) (end 77.47 -48.26) (layer F.SilkS) (width 0.15))
  (fp_line (start 77.47 -48.26) (end -77.47 -48.26) (layer F.SilkS) (width 0.15))
  (fp_line (start -80.01 -50.8) (end 80.01 -50.8) (layer F.SilkS) (width 0.15))
  (fp_line (start 80.01 -50.8) (end 80.01 39.37) (layer F.SilkS) (width 0.15))
  (fp_line (start 80.01 39.37) (end -80.01 39.37) (layer F.SilkS) (width 0.15))
  (fp_line (start -80.01 39.37) (end -80.01 -50.8) (layer F.SilkS) (width 0.15))
)
