(module Kradex-Z-108 (layer F.Cu) (tedit 5D305CD1)
  (fp_text reference REF** (at 0 0.5) (layer F.SilkS)
    (effects (font (size 1 1) (thickness 0.15)))
  )
  (fp_text value Z-108 (at 0 -0.5) (layer F.Fab)
    (effects (font (size 1 1) (thickness 0.15)))
  )
  (fp_line (start 67.945 1.905) (end 67.945 88.265) (layer F.SilkS) (width 0.15))
  (fp_line (start 1.905 88.265) (end 1.905 1.905) (layer F.SilkS) (width 0.15))
  (fp_circle (center 8.763 82.931) (end 8.636 85.471) (layer F.SilkS) (width 0.15))
  (fp_circle (center 7.62 7.112) (end 7.62 5.08) (layer F.SilkS) (width 0.15))
  (fp_text user "Height : 16.5" (at 85.725 83.82) (layer F.SilkS)
    (effects (font (size 1 1) (thickness 0.15)))
  )
  (fp_text user "Height : 16.5" (at 85.09 6.985) (layer F.SilkS)
    (effects (font (size 1 1) (thickness 0.15)))
  )
  (fp_line (start 80.01 10.795) (end 80.01 2.54) (layer F.SilkS) (width 0.15))
  (fp_line (start 80.01 79.375) (end 80.01 87.63) (layer F.SilkS) (width 0.15))
  (fp_text user "Height : 33" (at 85.09 73.66) (layer F.SilkS)
    (effects (font (size 1 1) (thickness 0.15)))
  )
  (fp_text user "Height : 33" (at 85.09 17.145) (layer F.SilkS)
    (effects (font (size 1 1) (thickness 0.15)))
  )
  (fp_line (start 80.01 68.58) (end 80.01 78.105) (layer F.SilkS) (width 0.15))
  (fp_line (start 80.01 21.59) (end 80.01 12.065) (layer F.SilkS) (width 0.15))
  (fp_text user "Height : 47" (at 85.09 44.45) (layer F.SilkS)
    (effects (font (size 1 1) (thickness 0.15)))
  )
  (fp_line (start 80.01 22.86) (end 80.01 67.31) (layer F.SilkS) (width 0.15))
  (fp_line (start -17.78 67.945) (end 80.645 67.945) (layer F.SilkS) (width 0.15))
  (fp_line (start -17.78 22.225) (end 80.645 22.225) (layer F.SilkS) (width 0.15))
  (fp_line (start -17.78 78.74) (end 80.645 78.74) (layer F.SilkS) (width 0.15))
  (fp_line (start -17.78 11.43) (end 80.645 11.43) (layer F.SilkS) (width 0.15))
  (fp_circle (center 9.017 72.009) (end 9.017 70.739) (layer F.SilkS) (width 0.15))
  (fp_circle (center 9.017 18.161) (end 9.017 16.891) (layer F.SilkS) (width 0.15))
  (fp_circle (center 60.833 18.161) (end 60.833 16.891) (layer F.SilkS) (width 0.15))
  (fp_circle (center 61.468 72.009) (end 61.468 70.739) (layer F.SilkS) (width 0.15))
  (fp_circle (center 61.468 72.009) (end 61.468 75.184) (layer F.SilkS) (width 0.15))
  (fp_circle (center 60.833 18.161) (end 60.833 21.336) (layer F.SilkS) (width 0.15))
  (fp_circle (center 9.017 18.161) (end 9.017 21.336) (layer F.SilkS) (width 0.15))
  (fp_circle (center 9.017 72.009) (end 9.017 75.184) (layer F.SilkS) (width 0.15))
  (fp_line (start 2.921 1.905) (end 2.921 88.265) (layer F.SilkS) (width 0.15))
  (fp_line (start 1.905 88.265) (end 67.945 88.265) (layer F.SilkS) (width 0.15))
  (fp_line (start 66.929 88.265) (end 66.929 1.905) (layer F.SilkS) (width 0.15))
  (fp_line (start 67.945 1.905) (end 1.905 1.905) (layer F.SilkS) (width 0.15))
  (fp_line (start 0 0) (end 69.85 0) (layer F.SilkS) (width 0.15))
  (fp_line (start 69.85 0) (end 69.85 90.17) (layer F.SilkS) (width 0.15))
  (fp_line (start 69.85 90.17) (end 0 90.17) (layer F.SilkS) (width 0.15))
  (fp_line (start 0 90.17) (end 0 0) (layer F.SilkS) (width 0.15))
  (fp_circle (center 12.62 7.112) (end 12.62 5.08) (layer F.SilkS) (width 0.15))
  (fp_circle (center 17.62 7.112) (end 17.62 5.08) (layer F.SilkS) (width 0.15))
  (fp_circle (center 22.62 7.112) (end 22.62 5.08) (layer F.SilkS) (width 0.15))
  (fp_circle (center 27.62 7.112) (end 27.62 5.08) (layer F.SilkS) (width 0.15))
  (fp_circle (center 32.62 7.112) (end 32.62 5.08) (layer F.SilkS) (width 0.15))
  (fp_circle (center 37.62 7.112) (end 37.62 5.08) (layer F.SilkS) (width 0.15))
  (fp_circle (center 42.62 7.112) (end 42.62 5.08) (layer F.SilkS) (width 0.15))
  (fp_circle (center 47.62 7.112) (end 47.62 5.08) (layer F.SilkS) (width 0.15))
  (fp_circle (center 52.62 7.112) (end 52.62 5.08) (layer F.SilkS) (width 0.15))
  (fp_circle (center 57.62 7.112) (end 57.62 5.08) (layer F.SilkS) (width 0.15))
  (fp_circle (center 62.62 7.112) (end 62.62 5.08) (layer F.SilkS) (width 0.15))
  (fp_circle (center 16.263 82.931) (end 16.136 85.471) (layer F.SilkS) (width 0.15))
  (fp_circle (center 23.763 82.931) (end 23.636 85.471) (layer F.SilkS) (width 0.15))
  (fp_circle (center 31.263 82.931) (end 31.136 85.471) (layer F.SilkS) (width 0.15))
  (fp_circle (center 38.763 82.931) (end 38.636 85.471) (layer F.SilkS) (width 0.15))
  (fp_circle (center 46.263 82.931) (end 46.136 85.471) (layer F.SilkS) (width 0.15))
  (fp_circle (center 53.763 82.931) (end 53.636 85.471) (layer F.SilkS) (width 0.15))
  (fp_circle (center 61.263 82.931) (end 61.136 85.471) (layer F.SilkS) (width 0.15))
)
