(module Kradex-Z-125 (layer F.Cu) (tedit 5ADB7E9D)
  (fp_text reference REF** (at 14.9225 24.9475) (layer F.SilkS)
    (effects (font (size 1 1) (thickness 0.15)))
  )
  (fp_text value Kradex-Z-125 (at 14.9225 23.9475) (layer F.Fab)
    (effects (font (size 1 1) (thickness 0.15)))
  )
  (fp_circle (center 13.4493 176.3903) (end 13.4493 171.3865) (layer F.SilkS) (width 0.15))
  (fp_circle (center 76.327 176.3649) (end 76.327 171.3865) (layer F.SilkS) (width 0.15))
  (fp_circle (center 76.2889 13.4493) (end 76.2889 8.4582) (layer F.SilkS) (width 0.15))
  (fp_circle (center 13.4493 13.4366) (end 13.4493 8.4455) (layer F.SilkS) (width 0.15))
  (fp_circle (center 60.8203 177.927) (end 60.8203 174.9171) (layer F.SilkS) (width 0.15))
  (fp_circle (center 28.9306 177.927) (end 28.956 174.9171) (layer F.SilkS) (width 0.15))
  (fp_circle (center 60.8203 11.9253) (end 60.8203 8.9154) (layer F.SilkS) (width 0.15))
  (fp_circle (center 28.9306 11.9253) (end 28.9433 8.9154) (layer F.SilkS) (width 0.15))
  (fp_line (start 97.5995 178.3334) (end 97.5995 177.9524) (layer F.SilkS) (width 0.15))
  (fp_circle (center 77.8764 72.9488) (end 77.8764 69.9389) (layer F.SilkS) (width 0.15))
  (fp_circle (center 77.8764 116.9035) (end 77.8891 119.9007) (layer F.SilkS) (width 0.15))
  (fp_circle (center 11.8745 116.9162) (end 11.8745 113.919) (layer F.SilkS) (width 0.15))
  (fp_circle (center 11.8745 72.9488) (end 11.8745 69.9389) (layer F.SilkS) (width 0.15))
  (fp_circle (center 77.8764 159.8422) (end 77.8764 156.8323) (layer F.SilkS) (width 0.15))
  (fp_circle (center 77.8764 30.0101) (end 77.8764 27.0002) (layer F.SilkS) (width 0.15))
  (fp_circle (center 11.8745 159.8422) (end 11.8745 156.8323) (layer F.SilkS) (width 0.15))
  (fp_circle (center 11.8618 30.0228) (end 11.8745 27.0383) (layer F.SilkS) (width 0.15))
  (fp_line (start 2.8 187.15) (end 86.95 187.15) (layer F.SilkS) (width 0.15))
  (fp_line (start 2.8 2.8) (end 2.8 187.15) (layer F.SilkS) (width 0.15))
  (fp_line (start 86.95 2.8) (end 86.95 187.15) (layer F.SilkS) (width 0.15))
  (fp_line (start 2.8 2.8) (end 86.95 2.8) (layer F.SilkS) (width 0.15))
  (fp_line (start 0 0) (end 89.75 0) (layer F.SilkS) (width 0.15))
  (fp_line (start 89.75 0) (end 89.75 189.85) (layer F.SilkS) (width 0.15))
  (fp_line (start 89.75 189.85) (end 0 189.85) (layer F.SilkS) (width 0.15))
  (fp_line (start 0 189.85) (end 0 0) (layer F.SilkS) (width 0.15))
)
