(module Legrand-170x170x50 (layer F.Cu) (tedit 5E524314)
  (fp_text reference REF** (at -9.525 -85.09) (layer F.SilkS)
    (effects (font (size 1 1) (thickness 0.15)))
  )
  (fp_text value Legrand-170x170x50 (at 2.54 -85.09) (layer F.Fab)
    (effects (font (size 1 1) (thickness 0.15)))
  )
  (fp_line (start -60.96 81.28) (end -81.28 60.96) (layer F.SilkS) (width 0.15))
  (fp_line (start -81.28 -60.96) (end -60.96 -81.28) (layer F.SilkS) (width 0.15))
  (fp_line (start 60.96 -81.28) (end 81.28 -60.96) (layer F.SilkS) (width 0.15))
  (fp_line (start 81.28 60.96) (end 60.96 81.28) (layer F.SilkS) (width 0.15))
  (fp_line (start -90.17 -90.17) (end 90.17 -90.17) (layer F.SilkS) (width 0.15))
  (fp_line (start 90.17 -90.17) (end 90.17 90.17) (layer F.SilkS) (width 0.15))
  (fp_line (start 90.17 90.17) (end -90.17 90.17) (layer F.SilkS) (width 0.15))
  (fp_line (start -90.17 90.17) (end -90.17 -90.17) (layer F.SilkS) (width 0.15))
  (fp_circle (center -54.61 -54.61) (end -54.61 -52.705) (layer F.SilkS) (width 0.15))
  (fp_circle (center -54.61 54.61) (end -54.61 56.515) (layer F.SilkS) (width 0.15))
  (fp_circle (center 54.61 54.61) (end 54.61 56.515) (layer F.SilkS) (width 0.15))
  (fp_circle (center 54.61 -54.61) (end 54.61 -52.705) (layer F.SilkS) (width 0.15))
  (fp_line (start -81.28 -81.28) (end 81.28 -81.28) (layer F.SilkS) (width 0.15))
  (fp_line (start 81.28 -81.28) (end 81.28 81.28) (layer F.SilkS) (width 0.15))
  (fp_line (start 81.28 81.28) (end -81.28 81.28) (layer F.SilkS) (width 0.15))
  (fp_line (start -81.28 81.28) (end -81.28 -81.28) (layer F.SilkS) (width 0.15))
)
