(module KYX3661AS (layer F.Cu) (tedit 5AF0A0FF)
  (fp_text reference REF** (at 8.89 -6.35) (layer F.SilkS)
    (effects (font (size 1 1) (thickness 0.15)))
  )
  (fp_text value KYX3661AS (at 8.89 -3.81) (layer F.Fab)
    (effects (font (size 1 1) (thickness 0.15)))
  )
  (fp_line (start -14.605 -12.065) (end 29.845 -12.065) (layer F.SilkS) (width 0.15))
  (fp_line (start 29.845 -12.065) (end 29.845 1.905) (layer F.SilkS) (width 0.15))
  (fp_line (start 29.845 1.905) (end -14.605 1.905) (layer F.SilkS) (width 0.15))
  (fp_line (start -14.605 1.905) (end -14.605 -12.065) (layer F.SilkS) (width 0.15))
  (pad 1 thru_hole circle (at 0 0) (size 1.524 1.524) (drill 0.762) (layers *.Cu *.Mask F.SilkS))
  (pad 2 thru_hole circle (at 2.54 0) (size 1.524 1.524) (drill 0.762) (layers *.Cu *.Mask F.SilkS))
  (pad 3 thru_hole circle (at 5.08 0) (size 1.524 1.524) (drill 0.762) (layers *.Cu *.Mask F.SilkS))
  (pad 4 thru_hole circle (at 7.62 0) (size 1.524 1.524) (drill 0.762) (layers *.Cu *.Mask F.SilkS))
  (pad 5 thru_hole circle (at 10.16 0) (size 1.524 1.524) (drill 0.762) (layers *.Cu *.Mask F.SilkS))
  (pad 6 thru_hole circle (at 12.7 0) (size 1.524 1.524) (drill 0.762) (layers *.Cu *.Mask F.SilkS))
  (pad 7 thru_hole circle (at 15.24 0) (size 1.524 1.524) (drill 0.762) (layers *.Cu *.Mask F.SilkS))
  (pad 8 thru_hole circle (at 15.24 -10.16) (size 1.524 1.524) (drill 0.762) (layers *.Cu *.Mask F.SilkS))
  (pad 9 thru_hole circle (at 12.7 -10.16) (size 1.524 1.524) (drill 0.762) (layers *.Cu *.Mask F.SilkS))
  (pad 10 thru_hole circle (at 10.16 -10.16) (size 1.524 1.524) (drill 0.762) (layers *.Cu *.Mask F.SilkS))
  (pad 11 thru_hole circle (at 7.62 -10.16) (size 1.524 1.524) (drill 0.762) (layers *.Cu *.Mask F.SilkS))
  (pad 12 thru_hole circle (at 5.08 -10.16) (size 1.524 1.524) (drill 0.762) (layers *.Cu *.Mask F.SilkS))
  (pad 13 thru_hole circle (at 2.54 -10.16) (size 1.524 1.524) (drill 0.762) (layers *.Cu *.Mask F.SilkS))
  (pad 14 thru_hole circle (at 0 -10.16) (size 1.524 1.524) (drill 0.762) (layers *.Cu *.Mask F.SilkS))
)
