(module MAX7219_DISPLAY (layer F.Cu) (tedit 58E88E45)
  (fp_text reference REF** (at 32.639 10.922) (layer F.SilkS)
    (effects (font (size 1 1) (thickness 0.15)))
  )
  (fp_text value MAX7219_DISPLAY (at 34.925 -0.762) (layer F.Fab)
    (effects (font (size 1 1) (thickness 0.15)))
  )
  (fp_circle (center 71.374 1.27) (end 71.374 2.54) (layer F.SilkS) (width 0.15))
  (fp_circle (center 71.374 8.89) (end 70.104 8.89) (layer F.SilkS) (width 0.15))
  (fp_circle (center -4.826 8.89) (end -6.096 8.89) (layer F.SilkS) (width 0.15))
  (fp_circle (center -4.826 1.27) (end -4.826 2.54) (layer F.SilkS) (width 0.15))
  (fp_circle (center 62.484 9.398) (end 62.484 9.525) (layer F.SilkS) (width 0.15))
  (fp_circle (center 49.784 9.398) (end 49.784 9.525) (layer F.SilkS) (width 0.15))
  (fp_line (start 61.976 9.398) (end 61.976 0.381) (layer F.SilkS) (width 0.15))
  (fp_line (start 61.976 9.398) (end 57.912 9.398) (layer F.SilkS) (width 0.15))
  (fp_line (start 61.976 4.953) (end 57.912 4.953) (layer F.SilkS) (width 0.15))
  (fp_line (start 61.976 0.381) (end 57.912 0.381) (layer F.SilkS) (width 0.15))
  (fp_line (start 57.912 9.398) (end 57.912 0.381) (layer F.SilkS) (width 0.15))
  (fp_line (start 55.626 9.398) (end 55.626 0.381) (layer F.SilkS) (width 0.15))
  (fp_line (start 55.626 0.381) (end 51.562 0.381) (layer F.SilkS) (width 0.15))
  (fp_line (start 55.626 4.953) (end 51.562 4.953) (layer F.SilkS) (width 0.15))
  (fp_line (start 55.626 9.398) (end 51.562 9.398) (layer F.SilkS) (width 0.15))
  (fp_circle (center 56.134 9.398) (end 56.134 9.525) (layer F.SilkS) (width 0.15))
  (fp_line (start 51.562 9.398) (end 51.562 0.381) (layer F.SilkS) (width 0.15))
  (fp_line (start 49.276 9.398) (end 49.276 0.381) (layer F.SilkS) (width 0.15))
  (fp_line (start 49.276 9.398) (end 45.212 9.398) (layer F.SilkS) (width 0.15))
  (fp_line (start 49.276 0.381) (end 45.212 0.381) (layer F.SilkS) (width 0.15))
  (fp_line (start 49.276 4.953) (end 45.212 4.953) (layer F.SilkS) (width 0.15))
  (fp_line (start 45.212 9.398) (end 45.212 0.381) (layer F.SilkS) (width 0.15))
  (fp_circle (center 43.434 9.398) (end 43.434 9.525) (layer F.SilkS) (width 0.15))
  (fp_line (start 42.926 9.398) (end 42.926 0.381) (layer F.SilkS) (width 0.15))
  (fp_line (start 42.926 0.381) (end 38.862 0.381) (layer F.SilkS) (width 0.15))
  (fp_line (start 42.926 9.398) (end 38.862 9.398) (layer F.SilkS) (width 0.15))
  (fp_line (start 42.926 4.953) (end 38.862 4.953) (layer F.SilkS) (width 0.15))
  (fp_line (start 38.862 9.398) (end 38.862 0.381) (layer F.SilkS) (width 0.15))
  (fp_circle (center 32.385 9.398) (end 32.385 9.525) (layer F.SilkS) (width 0.15))
  (fp_line (start 31.877 9.398) (end 31.877 0.381) (layer F.SilkS) (width 0.15))
  (fp_line (start 31.877 0.381) (end 27.813 0.381) (layer F.SilkS) (width 0.15))
  (fp_line (start 31.877 4.953) (end 27.813 4.953) (layer F.SilkS) (width 0.15))
  (fp_line (start 31.877 9.398) (end 27.813 9.398) (layer F.SilkS) (width 0.15))
  (fp_line (start 27.813 9.398) (end 27.813 0.381) (layer F.SilkS) (width 0.15))
  (fp_circle (center 26.035 9.398) (end 26.035 9.525) (layer F.SilkS) (width 0.15))
  (fp_line (start 25.527 4.953) (end 21.463 4.953) (layer F.SilkS) (width 0.15))
  (fp_line (start 25.527 9.398) (end 25.527 0.381) (layer F.SilkS) (width 0.15))
  (fp_line (start 25.527 9.398) (end 21.463 9.398) (layer F.SilkS) (width 0.15))
  (fp_line (start 25.527 0.381) (end 21.463 0.381) (layer F.SilkS) (width 0.15))
  (fp_line (start 21.463 9.398) (end 21.463 0.381) (layer F.SilkS) (width 0.15))
  (fp_circle (center 19.685 9.398) (end 19.685 9.525) (layer F.SilkS) (width 0.15))
  (fp_line (start 15.113 4.953) (end 19.177 4.953) (layer F.SilkS) (width 0.15))
  (fp_line (start 19.177 9.398) (end 19.177 0.381) (layer F.SilkS) (width 0.15))
  (fp_line (start 15.113 9.398) (end 19.177 9.398) (layer F.SilkS) (width 0.15))
  (fp_line (start 15.113 0.381) (end 15.113 9.398) (layer F.SilkS) (width 0.15))
  (fp_line (start 19.177 0.381) (end 15.113 0.381) (layer F.SilkS) (width 0.15))
  (fp_circle (center 13.335 9.398) (end 13.335 9.525) (layer F.SilkS) (width 0.15))
  (fp_line (start 8.763 4.953) (end 12.827 4.953) (layer F.SilkS) (width 0.15))
  (fp_line (start 8.763 0.381) (end 8.763 9.398) (layer F.SilkS) (width 0.15))
  (fp_line (start 8.763 9.398) (end 12.827 9.398) (layer F.SilkS) (width 0.15))
  (fp_line (start 12.827 9.398) (end 12.827 0.381) (layer F.SilkS) (width 0.15))
  (fp_line (start 12.827 0.381) (end 8.763 0.381) (layer F.SilkS) (width 0.15))
  (fp_line (start 35.306 -2.032) (end 35.306 11.938) (layer F.SilkS) (width 0.15))
  (fp_line (start 35.306 11.938) (end 65.405 11.938) (layer F.SilkS) (width 0.15))
  (fp_line (start 65.405 11.938) (end 65.405 -2.032) (layer F.SilkS) (width 0.15))
  (fp_line (start 65.405 -2.032) (end 35.306 -2.032) (layer F.SilkS) (width 0.15))
  (fp_line (start 5.207 -2.032) (end 5.207 11.938) (layer F.SilkS) (width 0.15))
  (fp_line (start 5.207 11.938) (end 35.179 11.938) (layer F.SilkS) (width 0.15))
  (fp_line (start 35.179 11.938) (end 35.179 -1.905) (layer F.SilkS) (width 0.15))
  (fp_line (start 35.179 -1.905) (end 35.179 -2.032) (layer F.SilkS) (width 0.15))
  (fp_line (start 35.179 -2.032) (end 5.207 -2.032) (layer F.SilkS) (width 0.15))
  (fp_line (start -7.874 -2.54) (end 74.168 -2.54) (layer F.SilkS) (width 0.15))
  (fp_line (start 74.168 -2.54) (end 74.168 12.446) (layer F.SilkS) (width 0.15))
  (fp_line (start 74.168 12.446) (end -7.874 12.446) (layer F.SilkS) (width 0.15))
  (fp_line (start -7.874 12.446) (end -7.874 -2.54) (layer F.SilkS) (width 0.15))
  (pad 1 thru_hole circle (at -0.254 -0.254) (size 1.524 1.524) (drill 0.762) (layers *.Cu *.Mask F.SilkS))
  (pad 2 thru_hole circle (at -0.254 2.286) (size 1.524 1.524) (drill 0.762) (layers *.Cu *.Mask F.SilkS))
  (pad 3 thru_hole circle (at -0.254 4.826) (size 1.524 1.524) (drill 0.762) (layers *.Cu *.Mask F.SilkS))
  (pad 4 thru_hole circle (at -0.254 7.366) (size 1.524 1.524) (drill 0.762) (layers *.Cu *.Mask F.SilkS))
  (pad 5 thru_hole circle (at -0.254 9.906) (size 1.524 1.524) (drill 0.762) (layers *.Cu *.Mask F.SilkS))
)
