(module myDisplays:PCF8577-I2C-DISPLAY (layer F.Cu) (tedit 5A354805)
  (fp_text reference REF** (at 0 -7.62) (layer F.SilkS)
    (effects (font (size 1 1) (thickness 0.15)))
  )
  (fp_text value PCF8577-I2C-DISPLAY (at 0 -10.795) (layer F.Fab)
    (effects (font (size 1 1) (thickness 0.15)))
  )
  (fp_circle (center 17.78 28.575) (end 17.78 31.115) (layer F.SilkS) (width 0.15))
  (fp_circle (center -17.78 28.575) (end -17.78 31.115) (layer F.SilkS) (width 0.15))
  (fp_circle (center 17.78 -28.575) (end 17.78 -31.115) (layer F.SilkS) (width 0.15))
  (fp_circle (center -17.78 -28.575) (end -17.78 -31.115) (layer F.SilkS) (width 0.15))
  (fp_circle (center 40.005 41.275) (end 40.005 41.275) (layer F.SilkS) (width 0.15))
  (fp_line (start -0.635 -17.9705) (end 8.255 -17.9705) (layer F.SilkS) (width 0.15))
  (fp_line (start 8.255 -17.9705) (end 8.255 -16.7005) (layer F.SilkS) (width 0.15))
  (fp_line (start 8.255 -16.7005) (end -0.635 -16.7005) (layer F.SilkS) (width 0.15))
  (fp_line (start -0.635 -16.7005) (end -0.635 -17.9705) (layer F.SilkS) (width 0.15))
  (fp_line (start -0.127 -14.1605) (end -0.127 -24.3205) (layer F.SilkS) (width 0.15))
  (fp_line (start -0.127 -24.3205) (end 0.127 -24.3205) (layer F.SilkS) (width 0.15))
  (fp_line (start 0.127 -24.3205) (end 0.127 -14.1605) (layer F.SilkS) (width 0.15))
  (fp_line (start 0.127 -14.1605) (end -0.127 -14.1605) (layer F.SilkS) (width 0.15))
  (fp_line (start 2.413 -14.1605) (end 2.413 -24.3205) (layer F.SilkS) (width 0.15))
  (fp_line (start 2.413 -24.3205) (end 2.667 -24.3205) (layer F.SilkS) (width 0.15))
  (fp_line (start 2.667 -24.3205) (end 2.667 -14.1605) (layer F.SilkS) (width 0.15))
  (fp_line (start 2.667 -14.1605) (end 2.413 -14.1605) (layer F.SilkS) (width 0.15))
  (fp_line (start 4.953 -14.1605) (end 4.953 -24.3205) (layer F.SilkS) (width 0.15))
  (fp_line (start 4.953 -24.3205) (end 5.207 -24.3205) (layer F.SilkS) (width 0.15))
  (fp_line (start 5.207 -24.3205) (end 5.207 -14.1605) (layer F.SilkS) (width 0.15))
  (fp_line (start 5.207 -14.1605) (end 4.953 -14.1605) (layer F.SilkS) (width 0.15))
  (fp_line (start 7.493 -14.1605) (end 7.493 -24.3205) (layer F.SilkS) (width 0.15))
  (fp_line (start 7.493 -24.3205) (end 7.747 -24.3205) (layer F.SilkS) (width 0.15))
  (fp_line (start 7.747 -24.3205) (end 7.747 -14.1605) (layer F.SilkS) (width 0.15))
  (fp_line (start 7.747 -14.1605) (end 7.493 -14.1605) (layer F.SilkS) (width 0.15))
  (fp_line (start 20.955 -31.75) (end 20.955 31.75) (layer F.SilkS) (width 0.15))
  (fp_line (start 20.955 31.75) (end -20.955 31.75) (layer F.SilkS) (width 0.15))
  (fp_line (start 20.955 -31.75) (end -20.955 -31.75) (layer F.SilkS) (width 0.15))
  (fp_line (start -20.955 -31.75) (end -20.955 31.75) (layer F.SilkS) (width 0.15))
  (pad 1 thru_hole circle (at 0 -14.1605) (size 1.524 1.524) (drill 0.762) (layers *.Cu *.Mask F.SilkS))
  (pad 2 thru_hole circle (at 2.54 -14.1605) (size 1.524 1.524) (drill 0.762) (layers *.Cu *.Mask F.SilkS))
  (pad 3 thru_hole circle (at 5.08 -14.1605) (size 1.524 1.524) (drill 0.762) (layers *.Cu *.Mask F.SilkS))
  (pad 4 thru_hole circle (at 7.62 -14.1605) (size 1.524 1.524) (drill 0.762) (layers *.Cu *.Mask F.SilkS))
)
