(module SSD1306-128x64-I2C (layer F.Cu) (tedit 5B6387C7)
  (fp_text reference REF** (at 3.937 9.398) (layer F.SilkS)
    (effects (font (size 1 1) (thickness 0.15)))
  )
  (fp_text value SSD1306-128x64-I2C (at 3.683 7.366) (layer F.Fab)
    (effects (font (size 1 1) (thickness 0.15)))
  )
  (fp_line (start -9.271 3.175) (end -9.271 21.59) (layer F.SilkS) (width 0.15))
  (fp_line (start -9.271 21.59) (end 16.891 21.59) (layer F.SilkS) (width 0.15))
  (fp_line (start 16.891 21.59) (end 16.891 3.175) (layer F.SilkS) (width 0.15))
  (fp_line (start 16.891 3.175) (end -9.271 3.175) (layer F.SilkS) (width 0.15))
  (fp_circle (center -7.874 24.003) (end -7.874 22.987) (layer F.SilkS) (width 0.15))
  (fp_circle (center 15.494 24.003) (end 15.494 22.987) (layer F.SilkS) (width 0.15))
  (fp_circle (center 15.494 0.635) (end 15.494 -0.381) (layer F.SilkS) (width 0.15))
  (fp_circle (center -7.874 0.635) (end -7.874 -0.381) (layer F.SilkS) (width 0.15))
  (fp_line (start -9.652 -1.27) (end 17.272 -1.27) (layer F.SilkS) (width 0.15))
  (fp_line (start 17.272 -1.27) (end 17.272 25.781) (layer F.SilkS) (width 0.15))
  (fp_line (start 17.272 25.781) (end -9.652 25.781) (layer F.SilkS) (width 0.15))
  (fp_line (start -9.652 25.781) (end -9.652 -1.27) (layer F.SilkS) (width 0.15))
  (pad 1 thru_hole oval (at 0 0) (size 1.524 2.54) (drill 0.762) (layers *.Cu *.Mask F.SilkS))
  (pad 2 thru_hole oval (at 2.54 0) (size 1.524 2.54) (drill 0.762) (layers *.Cu *.Mask F.SilkS))
  (pad 3 thru_hole oval (at 5.08 0) (size 1.524 2.54) (drill 0.762) (layers *.Cu *.Mask F.SilkS))
  (pad 4 thru_hole oval (at 7.62 0) (size 1.524 2.54) (drill 0.762) (layers *.Cu *.Mask F.SilkS))
  (pad "" thru_hole circle (at 15.494 0.635) (size 1.524 1.524) (drill 0.762) (layers *.Cu *.Mask F.SilkS))
  (pad "" thru_hole circle (at -7.874 0.635) (size 1.524 1.524) (drill 0.762) (layers *.Cu *.Mask F.SilkS))
  (pad "" thru_hole circle (at -7.874 24.003) (size 1.524 1.524) (drill 0.762) (layers *.Cu *.Mask F.SilkS))
  (pad "" thru_hole circle (at 15.494 24.003) (size 1.524 1.524) (drill 0.762) (layers *.Cu *.Mask F.SilkS))
)
