(module ST7789-DISPLAY (layer F.Cu) (tedit 5DC2F4BC)
  (fp_text reference REF** (at 7.62 10.795) (layer F.SilkS)
    (effects (font (size 1 1) (thickness 0.15)))
  )
  (fp_text value ST7789-DISPLAY (at 7.62 8.89) (layer F.Fab)
    (effects (font (size 1 1) (thickness 0.15)))
  )
  (fp_line (start -5.715 3.175) (end 20.955 3.175) (layer F.SilkS) (width 0.15))
  (fp_line (start 20.955 3.175) (end 20.955 32.385) (layer F.SilkS) (width 0.15))
  (fp_line (start 20.955 32.385) (end -5.715 32.385) (layer F.SilkS) (width 0.15))
  (fp_line (start -5.715 32.385) (end -5.715 3.175) (layer F.SilkS) (width 0.15))
  (fp_line (start 21.59 -1.905) (end 21.59 37.465) (layer F.SilkS) (width 0.15))
  (fp_line (start 21.59 37.465) (end -6.35 37.465) (layer F.SilkS) (width 0.15))
  (fp_line (start -6.35 37.465) (end -6.35 -1.905) (layer F.SilkS) (width 0.15))
  (fp_line (start -6.35 -1.905) (end 21.59 -1.905) (layer F.SilkS) (width 0.15))
  (pad 1 thru_hole circle (at 0 0) (size 1.524 1.524) (drill 0.762) (layers *.Cu *.Mask F.SilkS))
  (pad 2 thru_hole circle (at 2.54 0) (size 1.524 1.524) (drill 0.762) (layers *.Cu *.Mask F.SilkS))
  (pad 3 thru_hole circle (at 5.08 0) (size 1.524 1.524) (drill 0.762) (layers *.Cu *.Mask F.SilkS))
  (pad 4 thru_hole circle (at 7.62 0) (size 1.524 1.524) (drill 0.762) (layers *.Cu *.Mask F.SilkS))
  (pad 5 thru_hole circle (at 10.16 0) (size 1.524 1.524) (drill 0.762) (layers *.Cu *.Mask F.SilkS))
  (pad 6 thru_hole circle (at 12.7 0) (size 1.524 1.524) (drill 0.762) (layers *.Cu *.Mask F.SilkS))
  (pad 7 thru_hole circle (at 15.24 0) (size 1.524 1.524) (drill 0.762) (layers *.Cu *.Mask F.SilkS))
  (pad "" thru_hole circle (at -3.81 0.635) (size 1.524 1.524) (drill 0.762) (layers *.Cu *.Mask F.SilkS))
  (pad "" thru_hole circle (at 19.05 0.635) (size 1.524 1.524) (drill 0.762) (layers *.Cu *.Mask F.SilkS))
  (pad "" thru_hole circle (at 19.05 34.925) (size 1.524 1.524) (drill 0.762) (layers *.Cu *.Mask F.SilkS))
  (pad "" thru_hole circle (at -3.81 34.925) (size 1.524 1.524) (drill 0.762) (layers *.Cu *.Mask F.SilkS))
)
