(module MAX7219_DISPLAY (layer F.Cu) (tedit 58E88E45)
  (fp_text reference REF** (at 11.049 7.112) (layer F.SilkS)
    (effects (font (size 1 1) (thickness 0.15)))
  )
  (fp_text value MAX7219_DISPLAY (at 13.335 -4.572) (layer F.Fab)
    (effects (font (size 1 1) (thickness 0.15)))
  )
  (fp_circle (center 49.784 -2.54) (end 49.784 -1.27) (layer F.SilkS) (width 0.15))
  (fp_circle (center 49.784 5.08) (end 48.514 5.08) (layer F.SilkS) (width 0.15))
  (fp_circle (center -26.416 5.08) (end -27.686 5.08) (layer F.SilkS) (width 0.15))
  (fp_circle (center -26.416 -2.54) (end -26.416 -1.27) (layer F.SilkS) (width 0.15))
  (fp_circle (center 40.894 5.588) (end 40.894 5.715) (layer F.SilkS) (width 0.15))
  (fp_circle (center 28.194 5.588) (end 28.194 5.715) (layer F.SilkS) (width 0.15))
  (fp_line (start 40.386 5.588) (end 40.386 -3.429) (layer F.SilkS) (width 0.15))
  (fp_line (start 40.386 5.588) (end 36.322 5.588) (layer F.SilkS) (width 0.15))
  (fp_line (start 40.386 1.143) (end 36.322 1.143) (layer F.SilkS) (width 0.15))
  (fp_line (start 40.386 -3.429) (end 36.322 -3.429) (layer F.SilkS) (width 0.15))
  (fp_line (start 36.322 5.588) (end 36.322 -3.429) (layer F.SilkS) (width 0.15))
  (fp_line (start 34.036 5.588) (end 34.036 -3.429) (layer F.SilkS) (width 0.15))
  (fp_line (start 34.036 -3.429) (end 29.972 -3.429) (layer F.SilkS) (width 0.15))
  (fp_line (start 34.036 1.143) (end 29.972 1.143) (layer F.SilkS) (width 0.15))
  (fp_line (start 34.036 5.588) (end 29.972 5.588) (layer F.SilkS) (width 0.15))
  (fp_circle (center 34.544 5.588) (end 34.544 5.715) (layer F.SilkS) (width 0.15))
  (fp_line (start 29.972 5.588) (end 29.972 -3.429) (layer F.SilkS) (width 0.15))
  (fp_line (start 27.686 5.588) (end 27.686 -3.429) (layer F.SilkS) (width 0.15))
  (fp_line (start 27.686 5.588) (end 23.622 5.588) (layer F.SilkS) (width 0.15))
  (fp_line (start 27.686 -3.429) (end 23.622 -3.429) (layer F.SilkS) (width 0.15))
  (fp_line (start 27.686 1.143) (end 23.622 1.143) (layer F.SilkS) (width 0.15))
  (fp_line (start 23.622 5.588) (end 23.622 -3.429) (layer F.SilkS) (width 0.15))
  (fp_circle (center 21.844 5.588) (end 21.844 5.715) (layer F.SilkS) (width 0.15))
  (fp_line (start 21.336 5.588) (end 21.336 -3.429) (layer F.SilkS) (width 0.15))
  (fp_line (start 21.336 -3.429) (end 17.272 -3.429) (layer F.SilkS) (width 0.15))
  (fp_line (start 21.336 5.588) (end 17.272 5.588) (layer F.SilkS) (width 0.15))
  (fp_line (start 21.336 1.143) (end 17.272 1.143) (layer F.SilkS) (width 0.15))
  (fp_line (start 17.272 5.588) (end 17.272 -3.429) (layer F.SilkS) (width 0.15))
  (fp_circle (center 10.795 5.588) (end 10.795 5.715) (layer F.SilkS) (width 0.15))
  (fp_line (start 10.287 5.588) (end 10.287 -3.429) (layer F.SilkS) (width 0.15))
  (fp_line (start 10.287 -3.429) (end 6.223 -3.429) (layer F.SilkS) (width 0.15))
  (fp_line (start 10.287 1.143) (end 6.223 1.143) (layer F.SilkS) (width 0.15))
  (fp_line (start 10.287 5.588) (end 6.223 5.588) (layer F.SilkS) (width 0.15))
  (fp_line (start 6.223 5.588) (end 6.223 -3.429) (layer F.SilkS) (width 0.15))
  (fp_circle (center 4.445 5.588) (end 4.445 5.715) (layer F.SilkS) (width 0.15))
  (fp_line (start 3.937 1.143) (end -0.127 1.143) (layer F.SilkS) (width 0.15))
  (fp_line (start 3.937 5.588) (end 3.937 -3.429) (layer F.SilkS) (width 0.15))
  (fp_line (start 3.937 5.588) (end -0.127 5.588) (layer F.SilkS) (width 0.15))
  (fp_line (start 3.937 -3.429) (end -0.127 -3.429) (layer F.SilkS) (width 0.15))
  (fp_line (start -0.127 5.588) (end -0.127 -3.429) (layer F.SilkS) (width 0.15))
  (fp_circle (center -1.905 5.588) (end -1.905 5.715) (layer F.SilkS) (width 0.15))
  (fp_line (start -6.477 1.143) (end -2.413 1.143) (layer F.SilkS) (width 0.15))
  (fp_line (start -2.413 5.588) (end -2.413 -3.429) (layer F.SilkS) (width 0.15))
  (fp_line (start -6.477 5.588) (end -2.413 5.588) (layer F.SilkS) (width 0.15))
  (fp_line (start -6.477 -3.429) (end -6.477 5.588) (layer F.SilkS) (width 0.15))
  (fp_line (start -2.413 -3.429) (end -6.477 -3.429) (layer F.SilkS) (width 0.15))
  (fp_circle (center -8.255 5.588) (end -8.255 5.715) (layer F.SilkS) (width 0.15))
  (fp_line (start -12.827 1.143) (end -8.763 1.143) (layer F.SilkS) (width 0.15))
  (fp_line (start -12.827 -3.429) (end -12.827 5.588) (layer F.SilkS) (width 0.15))
  (fp_line (start -12.827 5.588) (end -8.763 5.588) (layer F.SilkS) (width 0.15))
  (fp_line (start -8.763 5.588) (end -8.763 -3.429) (layer F.SilkS) (width 0.15))
  (fp_line (start -8.763 -3.429) (end -12.827 -3.429) (layer F.SilkS) (width 0.15))
  (fp_line (start 13.716 -5.842) (end 13.716 8.128) (layer F.SilkS) (width 0.15))
  (fp_line (start 13.716 8.128) (end 43.815 8.128) (layer F.SilkS) (width 0.15))
  (fp_line (start 43.815 8.128) (end 43.815 -5.842) (layer F.SilkS) (width 0.15))
  (fp_line (start 43.815 -5.842) (end 13.716 -5.842) (layer F.SilkS) (width 0.15))
  (fp_line (start -16.383 -5.842) (end -16.383 8.128) (layer F.SilkS) (width 0.15))
  (fp_line (start -16.383 8.128) (end 13.589 8.128) (layer F.SilkS) (width 0.15))
  (fp_line (start 13.589 8.128) (end 13.589 -5.715) (layer F.SilkS) (width 0.15))
  (fp_line (start 13.589 -5.715) (end 13.589 -5.842) (layer F.SilkS) (width 0.15))
  (fp_line (start 13.589 -5.842) (end -16.383 -5.842) (layer F.SilkS) (width 0.15))
  (fp_line (start -29.464 -6.35) (end 52.578 -6.35) (layer F.SilkS) (width 0.15))
  (fp_line (start 52.578 -6.35) (end 52.578 8.636) (layer F.SilkS) (width 0.15))
  (fp_line (start 52.578 8.636) (end -29.464 8.636) (layer F.SilkS) (width 0.15))
  (fp_line (start -29.464 8.636) (end -29.464 -6.35) (layer F.SilkS) (width 0.15))
  (pad 1 thru_hole circle (at -21.844 -4.064) (size 1.524 1.524) (drill 0.762) (layers *.Cu *.Mask F.SilkS))
  (pad 2 thru_hole circle (at -21.844 -1.524) (size 1.524 1.524) (drill 0.762) (layers *.Cu *.Mask F.SilkS))
  (pad 3 thru_hole circle (at -21.844 1.016) (size 1.524 1.524) (drill 0.762) (layers *.Cu *.Mask F.SilkS))
  (pad 4 thru_hole circle (at -21.844 3.556) (size 1.524 1.524) (drill 0.762) (layers *.Cu *.Mask F.SilkS))
  (pad 5 thru_hole circle (at -21.844 6.096) (size 1.524 1.524) (drill 0.762) (layers *.Cu *.Mask F.SilkS))
)
