(module MCP4725 (layer F.Cu) (tedit 5DE68B20)
  (fp_text reference REF** (at 5.588 3.937) (layer F.SilkS)
    (effects (font (size 1 1) (thickness 0.15)))
  )
  (fp_text value MCP4725 (at 4.953 1.778) (layer F.Fab)
    (effects (font (size 1 1) (thickness 0.15)))
  )
  (fp_circle (center 9.652 8.509) (end 9.525 10.033) (layer F.SilkS) (width 0.15))
  (fp_circle (center 0.508 8.509) (end 0.381 10.033) (layer F.SilkS) (width 0.15))
  (fp_line (start -1.524 -1.524) (end 11.684 -1.524) (layer F.SilkS) (width 0.15))
  (fp_line (start 11.684 -1.524) (end 11.684 10.541) (layer F.SilkS) (width 0.15))
  (fp_line (start 11.684 10.541) (end -1.524 10.541) (layer F.SilkS) (width 0.15))
  (fp_line (start -1.524 10.541) (end -1.524 -1.397) (layer F.SilkS) (width 0.15))
  (pad 5 thru_hole circle (at 0 0) (size 1.524 1.524) (drill 0.762) (layers *.Cu *.Mask F.SilkS))
  (pad 4 thru_hole circle (at 2.54 0) (size 1.524 1.524) (drill 0.762) (layers *.Cu *.Mask F.SilkS))
  (pad 3 thru_hole circle (at 5.08 0) (size 1.524 1.524) (drill 0.762) (layers *.Cu *.Mask F.SilkS))
  (pad 2 thru_hole circle (at 7.62 0) (size 1.524 1.524) (drill 0.762) (layers *.Cu *.Mask F.SilkS))
  (pad 1 thru_hole circle (at 10.16 0) (size 1.524 1.524) (drill 0.762) (layers *.Cu *.Mask F.SilkS))
)
