(module MLX90614-MODULE (layer F.Cu) (tedit 5DED0B03)
  (fp_text reference REF** (at 3.81 5.715) (layer F.SilkS)
    (effects (font (size 1 1) (thickness 0.15)))
  )
  (fp_text value MLX90614-MODULE (at 10.795 6.35 90) (layer F.Fab)
    (effects (font (size 1 1) (thickness 0.15)))
  )
  (fp_line (start 3.175 9.525) (end 3.175 10.16) (layer F.SilkS) (width 0.15))
  (fp_line (start 3.175 10.16) (end 4.445 10.16) (layer F.SilkS) (width 0.15))
  (fp_line (start 4.445 10.16) (end 4.445 9.525) (layer F.SilkS) (width 0.15))
  (fp_circle (center 3.81 6.35) (end 3.81 3.175) (layer F.SilkS) (width 0.15))
  (fp_circle (center 3.81 6.35) (end 3.81 4.445) (layer F.SilkS) (width 0.15))
  (fp_circle (center 3.81 6.35) (end 3.81 7.62) (layer F.SilkS) (width 0.15))
  (fp_line (start -1.905 -1.905) (end 9.525 -1.905) (layer F.SilkS) (width 0.15))
  (fp_line (start 9.525 -1.905) (end 9.525 14.605) (layer F.SilkS) (width 0.15))
  (fp_line (start 9.525 14.605) (end -1.905 14.605) (layer F.SilkS) (width 0.15))
  (fp_line (start -1.905 14.605) (end -1.905 -1.905) (layer F.SilkS) (width 0.15))
  (pad 1 thru_hole circle (at 0 0) (size 1.524 1.524) (drill 0.762) (layers *.Cu *.Mask F.SilkS))
  (pad 2 thru_hole circle (at 2.54 0) (size 1.524 1.524) (drill 0.762) (layers *.Cu *.Mask F.SilkS))
  (pad 3 thru_hole circle (at 5.08 0) (size 1.524 1.524) (drill 0.762) (layers *.Cu *.Mask F.SilkS))
  (pad 4 thru_hole circle (at 7.62 0) (size 1.524 1.524) (drill 0.762) (layers *.Cu *.Mask F.SilkS))
)
