(module NRF24L01-PA-LNA (layer F.Cu) (tedit 5DF4F9A0)
  (fp_text reference U? (at 18.415 5.715) (layer F.SilkS)
    (effects (font (size 1 1) (thickness 0.15)))
  )
  (fp_text value NRF24L01-PA-LNA (at 17.78 1.905) (layer F.Fab)
    (effects (font (size 1 1) (thickness 0.15)))
  )
  (fp_line (start 38.735 6.35) (end 38.735 11.43) (layer F.SilkS) (width 0.15))
  (fp_line (start 38.735 -3.81) (end 38.735 1.27) (layer F.SilkS) (width 0.15))
  (fp_line (start 41.275 1.27) (end 41.275 0.635) (layer F.SilkS) (width 0.15))
  (fp_line (start 41.275 0.635) (end 46.355 0.635) (layer F.SilkS) (width 0.15))
  (fp_line (start 46.355 0.635) (end 46.355 6.985) (layer F.SilkS) (width 0.15))
  (fp_line (start 46.355 6.985) (end 41.275 6.985) (layer F.SilkS) (width 0.15))
  (fp_line (start 41.275 6.985) (end 41.275 6.35) (layer F.SilkS) (width 0.15))
  (fp_line (start 37.465 1.27) (end 41.275 1.27) (layer F.SilkS) (width 0.15))
  (fp_line (start 41.275 1.27) (end 41.275 6.35) (layer F.SilkS) (width 0.15))
  (fp_line (start 41.275 6.35) (end 37.465 6.35) (layer F.SilkS) (width 0.15))
  (fp_line (start 31.115 0.635) (end 31.115 6.985) (layer F.SilkS) (width 0.15))
  (fp_line (start 31.115 6.985) (end 37.465 6.985) (layer F.SilkS) (width 0.15))
  (fp_line (start 37.465 6.985) (end 37.465 0.635) (layer F.SilkS) (width 0.15))
  (fp_line (start 37.465 0.635) (end 31.115 0.635) (layer F.SilkS) (width 0.15))
  (fp_line (start -1.27 -3.81) (end -1.27 11.43) (layer F.SilkS) (width 0.15))
  (fp_line (start -1.27 11.43) (end 38.735 11.43) (layer F.SilkS) (width 0.15))
  (fp_line (start 38.735 -3.81) (end -1.27 -3.81) (layer F.SilkS) (width 0.15))
  (pad 1 thru_hole circle (at 0 0) (size 1.524 1.524) (drill 0.762) (layers *.Cu *.Mask F.SilkS))
  (pad 2 thru_hole circle (at 2.54 0) (size 1.524 1.524) (drill 0.762) (layers *.Cu *.Mask F.SilkS))
  (pad 3 thru_hole circle (at 0 2.54) (size 1.524 1.524) (drill 0.762) (layers *.Cu *.Mask F.SilkS))
  (pad 4 thru_hole circle (at 2.54 2.54) (size 1.524 1.524) (drill 0.762) (layers *.Cu *.Mask F.SilkS))
  (pad 5 thru_hole circle (at 0 5.08) (size 1.524 1.524) (drill 0.762) (layers *.Cu *.Mask F.SilkS))
  (pad 6 thru_hole circle (at 2.54 5.08) (size 1.524 1.524) (drill 0.762) (layers *.Cu *.Mask F.SilkS))
  (pad 7 thru_hole circle (at 0 7.62) (size 1.524 1.524) (drill 0.762) (layers *.Cu *.Mask F.SilkS))
  (pad 8 thru_hole circle (at 2.54 7.62) (size 1.524 1.524) (drill 0.762) (layers *.Cu *.Mask F.SilkS))
)
