(module POLOLU-1185 (layer F.Cu) (tedit 596235B8)
  (fp_text reference REF** (at 5.588 6.35 180) (layer F.SilkS)
    (effects (font (size 1 1) (thickness 0.15)))
  )
  (fp_text value POLOLU-1185 (at 5.588 8.12 180) (layer F.Fab)
    (effects (font (size 1 1) (thickness 0.15)))
  )
  (fp_line (start -7.14375 17.04975) (end 13.23975 17.04975) (layer F.SilkS) (width 0.15))
  (fp_line (start -7.14375 17.04975) (end -7.14375 -1.04775) (layer F.SilkS) (width 0.15))
  (fp_line (start -7.14375 -1.04775) (end 13.23975 -1.04775) (layer F.SilkS) (width 0.15))
  (fp_line (start 13.23975 -1.04775) (end 13.23975 17.04975) (layer F.SilkS) (width 0.15))
  (pad 4 thru_hole circle (at -5.588 8.001) (size 1.524 1.524) (drill 0.762) (layers *.Cu *.Mask F.SilkS))
  (pad 3 thru_hole circle (at -5.588 5.461) (size 1.524 1.524) (drill 0.762) (layers *.Cu *.Mask F.SilkS))
  (pad 5 thru_hole circle (at -5.588 10.541) (size 1.524 1.524) (drill 0.762) (layers *.Cu *.Mask F.SilkS))
  (pad 1 thru_hole circle (at 4.953 2.032) (size 6 6) (drill 0.762) (layers *.Cu *.Mask F.SilkS))
  (pad 2 thru_hole circle (at 4.953 13.97) (size 6 6) (drill 0.762) (layers *.Cu *.Mask F.SilkS))
)
