(module RFM69CW (layer F.Cu) (tedit 5E46256C)
  (fp_text reference REF** (at 6.858 5.842) (layer F.SilkS)
    (effects (font (size 1 1) (thickness 0.15)))
  )
  (fp_text value RFM69CW (at 7.112 3.81) (layer F.Fab)
    (effects (font (size 1 1) (thickness 0.15)))
  )
  (fp_line (start -1.524 -1.524) (end 14.986 -1.524) (layer F.SilkS) (width 0.15))
  (fp_line (start 14.986 -1.524) (end 14.986 13.462) (layer F.SilkS) (width 0.15))
  (fp_line (start 14.986 13.462) (end -1.524 13.462) (layer F.SilkS) (width 0.15))
  (fp_line (start -1.524 13.462) (end -1.524 -1.524) (layer F.SilkS) (width 0.15))
  (pad 1 thru_hole circle (at 0 0) (size 1.524 1.524) (drill 0.762) (layers *.Cu *.Mask F.SilkS))
  (pad 14 thru_hole circle (at 13.6 0) (size 1.524 1.524) (drill 0.762) (layers *.Cu *.Mask F.SilkS))
  (pad 2 thru_hole circle (at 0 2) (size 1.524 1.524) (drill 0.762) (layers *.Cu *.Mask F.SilkS))
  (pad 13 thru_hole circle (at 13.6 2) (size 1.524 1.524) (drill 0.762) (layers *.Cu *.Mask F.SilkS))
  (pad 3 thru_hole circle (at 0 4) (size 1.524 1.524) (drill 0.762) (layers *.Cu *.Mask F.SilkS))
  (pad 12 thru_hole circle (at 13.6 4) (size 1.524 1.524) (drill 0.762) (layers *.Cu *.Mask F.SilkS))
  (pad 4 thru_hole circle (at 0 6) (size 1.524 1.524) (drill 0.762) (layers *.Cu *.Mask F.SilkS))
  (pad 11 thru_hole circle (at 13.6 6) (size 1.524 1.524) (drill 0.762) (layers *.Cu *.Mask F.SilkS))
  (pad 5 thru_hole circle (at 0 8) (size 1.524 1.524) (drill 0.762) (layers *.Cu *.Mask F.SilkS))
  (pad 10 thru_hole circle (at 13.6 8) (size 1.524 1.524) (drill 0.762) (layers *.Cu *.Mask F.SilkS))
  (pad 6 thru_hole circle (at 0 10) (size 1.524 1.524) (drill 0.762) (layers *.Cu *.Mask F.SilkS))
  (pad 9 thru_hole circle (at 13.6 10) (size 1.524 1.524) (drill 0.762) (layers *.Cu *.Mask F.SilkS))
  (pad 7 thru_hole circle (at 0 12) (size 1.524 1.524) (drill 0.762) (layers *.Cu *.Mask F.SilkS))
  (pad 8 thru_hole circle (at 13.6 12) (size 1.524 1.524) (drill 0.762) (layers *.Cu *.Mask F.SilkS))
)
