(module BNC_THT (layer F.Cu) (tedit 58B16C6F)
  (fp_text reference REF** (at -8.382 -9.906) (layer F.SilkS)
    (effects (font (size 1 1) (thickness 0.15)))
  )
  (fp_text value BNC_THT (at -7.874 -3.937) (layer F.Fab)
    (effects (font (size 1 1) (thickness 0.15)))
  )
  (fp_line (start -3.556 -12.954) (end -3.556 -1.27) (layer F.SilkS) (width 0.15))
  (fp_line (start -3.556 -1.27) (end -12.319 -1.27) (layer F.SilkS) (width 0.15))
  (fp_line (start -12.319 -1.27) (end -12.319 -12.954) (layer F.SilkS) (width 0.15))
  (fp_line (start -12.319 -12.954) (end -3.556 -12.954) (layer F.SilkS) (width 0.15))
  (fp_line (start -27.051 -14.478) (end -12.319 -14.478) (layer F.SilkS) (width 0.15))
  (fp_line (start -12.319 -14.478) (end -12.319 0.254) (layer F.SilkS) (width 0.15))
  (fp_line (start -12.319 0.254) (end -27.051 0.254) (layer F.SilkS) (width 0.15))
  (fp_line (start -27.051 -14.478) (end -27.051 0.254) (layer F.SilkS) (width 0.15))
  (fp_line (start 8.636 -12.192) (end 8.636 -2.032) (layer F.SilkS) (width 0.15))
  (fp_line (start 8.636 -2.032) (end -3.556 -2.032) (layer F.SilkS) (width 0.15))
  (fp_line (start -3.556 -2.032) (end -3.556 -12.192) (layer F.SilkS) (width 0.15))
  (fp_line (start -3.556 -12.192) (end 8.636 -12.192) (layer F.SilkS) (width 0.15))
  (pad "" thru_hole circle (at -19.685 -12.192) (size 4 4) (drill 0.762) (layers *.Cu *.Mask F.SilkS))
  (pad "" thru_hole circle (at -19.685 -2.032) (size 4 4) (drill 0.762) (layers *.Cu *.Mask F.SilkS))
  (pad 2 thru_hole circle (at -24.765 -7.112) (size 2 2) (drill 0.762) (layers *.Cu *.Mask F.SilkS))
  (pad 1 thru_hole circle (at -24.765 -9.652) (size 2 2) (drill 0.762) (layers *.Cu *.Mask F.SilkS))
)
