(module IEC_THT (layer F.Cu) (tedit 5A425184)
  (fp_text reference REF** (at 7.112 -5.08) (layer F.SilkS)
    (effects (font (size 1 1) (thickness 0.15)))
  )
  (fp_text value IEC_THT (at 7.112 -10.033) (layer F.Fab)
    (effects (font (size 1 1) (thickness 0.15)))
  )
  (fp_line (start 22.479 -17.145) (end 22.479 -18.288) (layer F.SilkS) (width 0.15))
  (fp_line (start 22.479 -18.288) (end -8.509 -18.288) (layer F.SilkS) (width 0.15))
  (fp_line (start -8.509 -18.288) (end -8.509 -17.145) (layer F.SilkS) (width 0.15))
  (fp_line (start 30.988 -14.097) (end -19.05 -14.097) (layer F.SilkS) (width 0.15))
  (fp_line (start -19.05 -14.097) (end -19.05 -17.145) (layer F.SilkS) (width 0.15))
  (fp_line (start -19.05 -17.145) (end 30.988 -17.145) (layer F.SilkS) (width 0.15))
  (fp_line (start 30.988 -17.145) (end 30.988 -14.097) (layer F.SilkS) (width 0.15))
  (fp_line (start 20.5105 0) (end 20.5105 -14.0335) (layer F.SilkS) (width 0.15))
  (fp_line (start 20.5105 -14.0335) (end -6.5405 -14.0335) (layer F.SilkS) (width 0.15))
  (fp_line (start -6.5405 -14.0335) (end -6.5405 0) (layer F.SilkS) (width 0.15))
  (fp_line (start -6.5405 0) (end 20.5105 0) (layer F.SilkS) (width 0.15))
  (pad 1 thru_hole circle (at 0 0) (size 3 3) (drill 0.762) (layers *.Cu *.Mask F.SilkS))
  (pad 2 thru_hole circle (at 6.985 0) (size 3 3) (drill 0.762) (layers *.Cu *.Mask F.SilkS))
  (pad 3 thru_hole circle (at 13.97 0) (size 3 3) (drill 0.762) (layers *.Cu *.Mask F.SilkS))
  (pad 1 thru_hole circle (at -2.032 0) (size 3 3) (drill 0.762) (layers *.Cu *.Mask F.SilkS))
  (pad 3 thru_hole circle (at 16.002 0) (size 3 3) (drill 0.762) (layers *.Cu *.Mask F.SilkS))
)
