(module JST_XH_S2B-XH-A_1x02_P2.50mm_Horizontal (layer F.Cu) (tedit 5C281475)
  (descr "JST XH series connector, S2B-XH-A (http://www.jst-mfg.com/product/pdf/eng/eXH.pdf), generated with kicad-footprint-generator")
  (tags "connector JST XH horizontal")
  (fp_text reference REF** (at 1.25 -3.5) (layer F.SilkS)
    (effects (font (size 1 1) (thickness 0.15)))
  )
  (fp_text value JST_XH_S2B-XH-A_1x02_P2.50mm_Horizontal (at 1.25 10.4) (layer F.Fab)
    (effects (font (size 1 1) (thickness 0.15)))
  )
  (fp_line (start -2.95 -2.8) (end -2.95 9.7) (layer F.CrtYd) (width 0.05))
  (fp_line (start -2.95 9.7) (end 5.45 9.7) (layer F.CrtYd) (width 0.05))
  (fp_line (start 5.45 9.7) (end 5.45 -2.8) (layer F.CrtYd) (width 0.05))
  (fp_line (start 5.45 -2.8) (end -2.95 -2.8) (layer F.CrtYd) (width 0.05))
  (fp_line (start 1.25 9.31) (end -2.56 9.31) (layer F.SilkS) (width 0.12))
  (fp_line (start -2.56 9.31) (end -2.56 -2.41) (layer F.SilkS) (width 0.12))
  (fp_line (start -2.56 -2.41) (end -1.14 -2.41) (layer F.SilkS) (width 0.12))
  (fp_line (start -1.14 -2.41) (end -1.14 2.09) (layer F.SilkS) (width 0.12))
  (fp_line (start -1.14 2.09) (end 1.25 2.09) (layer F.SilkS) (width 0.12))
  (fp_line (start 1.25 9.31) (end 5.06 9.31) (layer F.SilkS) (width 0.12))
  (fp_line (start 5.06 9.31) (end 5.06 -2.41) (layer F.SilkS) (width 0.12))
  (fp_line (start 5.06 -2.41) (end 3.64 -2.41) (layer F.SilkS) (width 0.12))
  (fp_line (start 3.64 -2.41) (end 3.64 2.09) (layer F.SilkS) (width 0.12))
  (fp_line (start 3.64 2.09) (end 1.25 2.09) (layer F.SilkS) (width 0.12))
  (fp_line (start 1.25 9.2) (end -2.45 9.2) (layer F.Fab) (width 0.1))
  (fp_line (start -2.45 9.2) (end -2.45 -2.3) (layer F.Fab) (width 0.1))
  (fp_line (start -2.45 -2.3) (end -1.25 -2.3) (layer F.Fab) (width 0.1))
  (fp_line (start -1.25 -2.3) (end -1.25 2.2) (layer F.Fab) (width 0.1))
  (fp_line (start -1.25 2.2) (end 1.25 2.2) (layer F.Fab) (width 0.1))
  (fp_line (start 1.25 9.2) (end 4.95 9.2) (layer F.Fab) (width 0.1))
  (fp_line (start 4.95 9.2) (end 4.95 -2.3) (layer F.Fab) (width 0.1))
  (fp_line (start 4.95 -2.3) (end 3.75 -2.3) (layer F.Fab) (width 0.1))
  (fp_line (start 3.75 -2.3) (end 3.75 2.2) (layer F.Fab) (width 0.1))
  (fp_line (start 3.75 2.2) (end 1.25 2.2) (layer F.Fab) (width 0.1))
  (fp_line (start -0.25 3.2) (end -0.25 8.7) (layer F.SilkS) (width 0.12))
  (fp_line (start -0.25 8.7) (end 0.25 8.7) (layer F.SilkS) (width 0.12))
  (fp_line (start 0.25 8.7) (end 0.25 3.2) (layer F.SilkS) (width 0.12))
  (fp_line (start 0.25 3.2) (end -0.25 3.2) (layer F.SilkS) (width 0.12))
  (fp_line (start 2.25 3.2) (end 2.25 8.7) (layer F.SilkS) (width 0.12))
  (fp_line (start 2.25 8.7) (end 2.75 8.7) (layer F.SilkS) (width 0.12))
  (fp_line (start 2.75 8.7) (end 2.75 3.2) (layer F.SilkS) (width 0.12))
  (fp_line (start 2.75 3.2) (end 2.25 3.2) (layer F.SilkS) (width 0.12))
  (fp_line (start 0 -1.5) (end -0.3 -2.1) (layer F.SilkS) (width 0.12))
  (fp_line (start -0.3 -2.1) (end 0.3 -2.1) (layer F.SilkS) (width 0.12))
  (fp_line (start 0.3 -2.1) (end 0 -1.5) (layer F.SilkS) (width 0.12))
  (fp_line (start -0.625 2.2) (end 0 1.2) (layer F.Fab) (width 0.1))
  (fp_line (start 0 1.2) (end 0.625 2.2) (layer F.Fab) (width 0.1))
  (pad 1 thru_hole rect (at 0 0) (size 1.7 2) (drill 1) (layers *.Cu *.Mask))
  (pad 2 thru_hole oval (at 2.5 0) (size 1.7 2) (drill 1) (layers *.Cu *.Mask))
  (fp_text user %R (at 1.25 3.45) (layer F.Fab)
    (effects (font (size 1 1) (thickness 0.15)))
  )
  (model ${KISYS3DMOD}/Connector_JST.3dshapes/JST_XH_S2B-XH-A_1x02_P2.50mm_Horizontal.wrl
    (at (xyz 0 0 0))
    (scale (xyz 1 1 1))
    (rotate (xyz 0 0 0))
  )
)
