(module Jumper-3x5.08 (layer F.Cu) (tedit 59B3E5A3)
  (fp_text reference REF** (at 5.207 2.921) (layer F.SilkS)
    (effects (font (size 1 1) (thickness 0.15)))
  )
  (fp_text value Jumper-3x5.08 (at 4.953 -2.921) (layer F.Fab)
    (effects (font (size 1 1) (thickness 0.15)))
  )
  (pad 1 thru_hole circle (at 0 0) (size 3.81 3.81) (drill 0.762) (layers *.Cu *.Mask F.SilkS))
  (pad 2 thru_hole circle (at 5.08 0) (size 3.81 3.81) (drill 0.762) (layers *.Cu *.Mask F.SilkS))
  (pad 3 thru_hole circle (at 10.16 0) (size 3.81 3.81) (drill 0.762) (layers *.Cu *.Mask F.SilkS))
)
