(module KEYS54 (layer F.Cu) (tedit 5A1880D5)
  (fp_text reference REF** (at 0 -3.048) (layer F.SilkS)
    (effects (font (size 1 1) (thickness 0.15)))
  )
  (fp_text value KEYS54 (at 0 -4.953) (layer F.Fab)
    (effects (font (size 1 1) (thickness 0.15)))
  )
  (fp_line (start 9.017 -9.398) (end 9.017 3.556) (layer F.SilkS) (width 0.15))
  (fp_line (start 9.017 3.556) (end -9.017 3.556) (layer F.SilkS) (width 0.15))
  (fp_line (start -9.017 3.556) (end -9.017 -9.398) (layer F.SilkS) (width 0.15))
  (fp_line (start -9.017 -9.398) (end 9.017 -9.398) (layer F.SilkS) (width 0.15))
  (pad 1 thru_hole circle (at 0 0) (size 5 5) (drill 0.762) (layers *.Cu *.Mask F.SilkS))
  (pad 1 thru_hole circle (at -2.54 -7.62) (size 5 5) (drill 0.762) (layers *.Cu *.Mask F.SilkS))
  (pad 1 thru_hole circle (at 2.54 -7.62) (size 5 5) (drill 0.762) (layers *.Cu *.Mask F.SilkS))
)
