(module NINIGI_NS25-W3K (layer F.Cu) (tedit 5C81D024)
  (descr "JST XH series connector,  NINIGI_NS25-W2P")
  (tags "connector ns25")
  (fp_text reference REF** (at 2.54 3.81) (layer F.SilkS)
    (effects (font (size 1 1) (thickness 0.15)))
  )
  (fp_text value NINIGI_NS25-W3K (at 1.27 -3.937) (layer F.Fab)
    (effects (font (size 1 1) (thickness 0.15)))
  )
  (fp_line (start 5.5372 0) (end 4.6101 0) (layer F.CrtYd) (width 0.05))
  (fp_line (start 5.5372 0) (end 5.5372 2.032) (layer F.CrtYd) (width 0.05))
  (fp_line (start 4.6101 0) (end 4.6101 2.032) (layer F.CrtYd) (width 0.05))
  (fp_line (start 5.5245 5.3975) (end 5.5245 12.954) (layer F.CrtYd) (width 0.05))
  (fp_line (start 5.5245 12.954) (end 5.1435 12.954) (layer F.CrtYd) (width 0.05))
  (fp_line (start -0.4445 5.3975) (end -0.4445 12.8905) (layer F.CrtYd) (width 0.05))
  (fp_line (start -0.4445 12.8905) (end -0.0635 12.8905) (layer F.CrtYd) (width 0.05))
  (fp_line (start 0 5.3975) (end 0 13.5255) (layer F.SilkS) (width 0.15))
  (fp_line (start 0 13.5255) (end 5.08 13.5255) (layer F.SilkS) (width 0.15))
  (fp_line (start 5.08 13.5255) (end 5.08 5.3975) (layer F.SilkS) (width 0.15))
  (fp_line (start 2.032 0) (end 2.9845 0) (layer F.CrtYd) (width 0.05))
  (fp_line (start 2.9845 0) (end 2.9845 2.032) (layer F.CrtYd) (width 0.05))
  (fp_line (start 2.032 0) (end 2.032 2.032) (layer F.CrtYd) (width 0.05))
  (fp_line (start -0.4445 0) (end 0.4445 0) (layer F.CrtYd) (width 0.05))
  (fp_line (start 0.4445 0) (end 0.4445 2.032) (layer F.CrtYd) (width 0.05))
  (fp_line (start -0.4445 0) (end -0.4445 2.032) (layer F.CrtYd) (width 0.05))
  (fp_line (start -1.27 2.032) (end 6.347 2.032) (layer F.SilkS) (width 0.15))
  (fp_line (start -1.307 5.3685) (end 6.347 5.3685) (layer F.SilkS) (width 0.15))
  (fp_line (start -1.307 2.032) (end -1.307 5.3685) (layer F.SilkS) (width 0.15))
  (fp_line (start 6.347 2.032) (end 6.347 5.3685) (layer F.SilkS) (width 0.15))
  (fp_line (start -1.807 -0.945) (end 6.847 -0.945) (layer F.CrtYd) (width 0.05))
  (fp_line (start -1.807 13.7425) (end 6.847 13.7425) (layer F.CrtYd) (width 0.05))
  (fp_line (start -1.807 -0.945) (end -1.807 13.7425) (layer F.CrtYd) (width 0.05))
  (fp_line (start 6.847 -0.945) (end 6.847 13.7425) (layer F.CrtYd) (width 0.05))
  (pad 1 thru_hole rect (at 0 0) (size 1.5 1.5) (drill 0.9) (layers *.Cu *.Mask F.SilkS))
  (pad 2 thru_hole circle (at 2.5 0) (size 1.5 1.5) (drill 1) (layers *.Cu *.Mask F.SilkS))
  (pad 3 thru_hole circle (at 5.08 0) (size 1.524 1.524) (drill 1) (layers *.Cu *.Mask F.SilkS))
  (model ./kicad-jst-xh.3dshapes/JST_B2B-XH-A.wrl
    (at (xyz 0 0 0))
    (scale (xyz 0.393701 0.393701 0.393701))
    (rotate (xyz 0 0 0))
  )
)
