(module RJ45_MIC24013-5204T-LF3 (layer F.Cu) (tedit 5DF61044)
  (descr https://belfuse.com/resources/drawings/stewartconnector/dr-stw-ss-74301-001-ss-74301-002-ss-74301-005.pdf)
  (tags "RJ45 Vertical Shield LED Green Yellow")
  (fp_text reference REF** (at 4.445 14.15) (layer F.SilkS)
    (effects (font (size 1 1) (thickness 0.15)))
  )
  (fp_text value RJ45_MIC24013-5204T-LF3 (at 4.7625 8.636) (layer F.Fab)
    (effects (font (size 1 1) (thickness 0.15)))
  )
  (fp_line (start -3.81 16.5608) (end 12.7 16.5608) (layer F.Fab) (width 0.1))
  (fp_line (start -3.81 -4.1402) (end -3.81 16.5608) (layer F.Fab) (width 0.1))
  (fp_line (start 12.7 -4.1402) (end 12.7 16.5608) (layer F.Fab) (width 0.1))
  (fp_line (start -3.81 -4.1402) (end 12.7 -4.1402) (layer F.Fab) (width 0.1))
  (fp_line (start -4.06 -4.39) (end 12.95 -4.39) (layer F.CrtYd) (width 0.05))
  (fp_line (start 12.95 4.6755) (end 12.95 16.8725) (layer F.CrtYd) (width 0.05))
  (fp_line (start 12.95 16.8725) (end -4.06 16.8725) (layer F.CrtYd) (width 0.05))
  (fp_line (start -4.06 16.8725) (end -4.06 4.6755) (layer F.CrtYd) (width 0.05))
  (fp_line (start -4.95 4.6755) (end -4.95 1.8755) (layer F.CrtYd) (width 0.05))
  (fp_line (start -4.06 1.05) (end -4.06 1.8755) (layer F.CrtYd) (width 0.05))
  (fp_line (start 13.85 4.6755) (end 13.85 1.8755) (layer F.CrtYd) (width 0.05))
  (fp_line (start 12.95 1.8755) (end 12.95 -4.39) (layer F.CrtYd) (width 0.05))
  (fp_line (start -3.95 16.729) (end 12.85 16.729) (layer F.SilkS) (width 0.12))
  (fp_line (start -3.95 16.729) (end -3.95 4.6755) (layer F.SilkS) (width 0.12))
  (fp_line (start -3.95 -4.3) (end 12.85 -4.3) (layer F.SilkS) (width 0.12))
  (fp_line (start 12.85 -4.3) (end 12.85 1.8755) (layer F.SilkS) (width 0.12))
  (fp_line (start -3.95 -4.3) (end -3.95 1.8755) (layer F.SilkS) (width 0.12))
  (fp_line (start 12.85 16.729) (end 12.85 4.6755) (layer F.SilkS) (width 0.12))
  (fp_text user %R (at 4.445 4.85) (layer F.Fab)
    (effects (font (size 1 1) (thickness 0.15)))
  )
  (fp_line (start -4 0) (end -4.5 -0.5) (layer F.SilkS) (width 0.12))
  (fp_line (start -4.5 -0.5) (end -4.5 0.5) (layer F.SilkS) (width 0.12))
  (fp_line (start -4.5 0.5) (end -4 0) (layer F.SilkS) (width 0.12))
  (fp_line (start -3.8 -0.5) (end -3.3 0) (layer F.Fab) (width 0.1))
  (fp_line (start -3.8 0.5) (end -3.3 0) (layer F.Fab) (width 0.1))
  (fp_line (start 12.95 1.8755) (end 13.85 1.8755) (layer F.CrtYd) (width 0.05))
  (fp_line (start 12.95 4.6755) (end 13.85 4.6755) (layer F.CrtYd) (width 0.05))
  (fp_line (start -4.06 1.8755) (end -4.95 1.8755) (layer F.CrtYd) (width 0.05))
  (fp_line (start -4.06 4.6755) (end -4.95 4.6755) (layer F.CrtYd) (width 0.05))
  (pad 1 thru_hole rect (at 0 0) (size 1.778 1.778) (drill 0.889) (layers *.Cu *.Mask))
  (pad 2 thru_hole circle (at 1.27 -2.54) (size 1.778 1.778) (drill 0.889) (layers *.Cu *.Mask))
  (pad 3 thru_hole circle (at 2.54 0) (size 1.778 1.778) (drill 0.889) (layers *.Cu *.Mask))
  (pad 4 thru_hole circle (at 3.81 -2.54) (size 1.778 1.778) (drill 0.889) (layers *.Cu *.Mask))
  (pad 5 thru_hole circle (at 5.08 0) (size 1.778 1.778) (drill 0.889) (layers *.Cu *.Mask))
  (pad 6 thru_hole circle (at 6.35 -2.54) (size 1.778 1.778) (drill 0.889) (layers *.Cu *.Mask))
  (pad 7 thru_hole circle (at 7.62 0) (size 1.778 1.778) (drill 0.889) (layers *.Cu *.Mask))
  (pad 8 thru_hole circle (at 8.89 -2.54) (size 1.778 1.778) (drill 0.889) (layers *.Cu *.Mask))
  (pad 13 thru_hole circle (at -2.159 10.414) (size 2.032 2.032) (drill 1.016) (layers *.Cu *.Mask))
  (pad 12 thru_hole circle (at 0.381 10.414) (size 2.032 2.032) (drill 1.016) (layers *.Cu *.Mask))
  (pad 10 thru_hole circle (at 11.049 10.414) (size 2.032 2.032) (drill 1.016) (layers *.Cu *.Mask))
  (pad 11 thru_hole circle (at 8.509 10.414) (size 2.032 2.032) (drill 1.016) (layers *.Cu *.Mask))
  (pad 9 thru_hole circle (at -3.429 3.302) (size 2.54 2.54) (drill 1.651) (layers *.Cu *.Mask))
  (pad 9 thru_hole circle (at 12.319 3.302) (size 2.54 2.54) (drill 1.651) (layers *.Cu *.Mask))
  (pad "" np_thru_hole circle (at -1.27 6.35) (size 3.2512 3.2512) (drill 3.2512) (layers *.Cu *.Mask))
  (pad "" np_thru_hole circle (at 10.16 6.35) (size 3.2512 3.2512) (drill 3.2512) (layers *.Cu *.Mask))
  (model ${KISYS3DMOD}/Connector_RJ.3dshapes/RJ45_BEL_SS74301-00x_Vertical.wrl
    (at (xyz 0 0 0))
    (scale (xyz 1 1 1))
    (rotate (xyz 0 0 0))
  )
)
