(module connector-USB_A (layer F.Cu) (tedit 59B3F238)
  (descr "USB A connector")
  (tags "USB USB_A")
  (fp_text reference REF** (at 3.556 -2.413) (layer F.SilkS)
    (effects (font (size 1 1) (thickness 0.15)))
  )
  (fp_text value connector-USB_A (at 3.302 6.858) (layer F.Fab)
    (effects (font (size 1 1) (thickness 0.15)))
  )
  (fp_line (start -3.417 -1.4) (end -3.417 13.2) (layer F.CrtYd) (width 0.05))
  (fp_line (start 10.045 -1.4) (end 10.045 13.2) (layer F.CrtYd) (width 0.05))
  (fp_line (start -3.395 13.2) (end 10.045 13.2) (layer F.CrtYd) (width 0.05))
  (fp_line (start -3.395 -1.4) (end 10.045 -1.4) (layer F.CrtYd) (width 0.05))
  (fp_line (start 9.77986 -1.14512) (end 9.77986 12.95188) (layer F.SilkS) (width 0.15))
  (fp_line (start -3.17414 12.95188) (end -3.17414 -1.14512) (layer F.SilkS) (width 0.15))
  (fp_line (start 9.77986 -1.14512) (end -3.17414 -1.14512) (layer F.SilkS) (width 0.15))
  (fp_line (start 9.77986 12.95188) (end -3.17414 12.95188) (layer F.SilkS) (width 0.15))
  (pad 4 thru_hole circle (at 7.11286 -0.00212 270) (size 1.50114 1.50114) (drill 1.00076) (layers *.Cu *.Mask F.SilkS))
  (pad 3 thru_hole circle (at 4.57286 -0.00212 270) (size 1.50114 1.50114) (drill 1.00076) (layers *.Cu *.Mask F.SilkS))
  (pad 2 thru_hole circle (at 2.54086 -0.00212 270) (size 1.50114 1.50114) (drill 1.00076) (layers *.Cu *.Mask F.SilkS))
  (pad 1 thru_hole circle (at 0.00086 -0.00212 270) (size 1.50114 1.50114) (drill 1.00076) (layers *.Cu *.Mask F.SilkS))
  (pad 5 thru_hole circle (at 9.906 2.667 270) (size 2.99974 2.99974) (drill 2.30124) (layers *.Cu *.Mask F.SilkS))
  (pad 5 thru_hole circle (at -3.302 2.667 270) (size 2.99974 2.99974) (drill 2.30124) (layers *.Cu *.Mask F.SilkS))
  (model Connect.3dshapes/USB_A.wrl
    (at (xyz 0.14 0 0))
    (scale (xyz 1 1 1))
    (rotate (xyz 0 0 90))
  )
)
