(module Relay_SPST_HONGFA_HF7520 (layer F.Cu) (tedit 5D46DD14)
  (descr "Relay, SPST")
  (tags "Relay, SPST, bistable")
  (fp_text reference REF** (at 9.398 0.254) (layer F.SilkS)
    (effects (font (size 1 1) (thickness 0.15)))
  )
  (fp_text value Relay_SPST_HONGFA_HF7520 (at 8.89 9.779) (layer F.Fab)
    (effects (font (size 1 1) (thickness 0.15)))
  )
  (fp_line (start -2.159 -1.651) (end -2.159 14.351) (layer F.SilkS) (width 0.15))
  (fp_line (start -2.159 14.351) (end 19.812 14.351) (layer F.SilkS) (width 0.15))
  (fp_line (start 19.812 14.351) (end 19.812 -1.651) (layer F.SilkS) (width 0.15))
  (fp_line (start 19.812 -1.651) (end -2.159 -1.651) (layer F.SilkS) (width 0.15))
  (fp_line (start 2.54 2.4765) (end 5.08 3.7465) (layer F.SilkS) (width 0.15))
  (fp_line (start 3.81 6.2865) (end 3.81 7.5565) (layer F.SilkS) (width 0.15))
  (fp_line (start 3.81 7.5565) (end 2.54 7.5565) (layer F.SilkS) (width 0.15))
  (fp_line (start 2.54 -0.0635) (end 3.81 -0.0635) (layer F.SilkS) (width 0.15))
  (fp_line (start 3.81 -0.0635) (end 3.81 1.2065) (layer F.SilkS) (width 0.15))
  (fp_line (start 3.81 1.2065) (end 5.08 1.2065) (layer F.SilkS) (width 0.15))
  (fp_line (start 5.08 1.2065) (end 5.08 6.2865) (layer F.SilkS) (width 0.15))
  (fp_line (start 5.08 6.2865) (end 2.54 6.2865) (layer F.SilkS) (width 0.15))
  (fp_line (start 2.54 6.2865) (end 2.54 1.2065) (layer F.SilkS) (width 0.15))
  (fp_line (start 2.54 1.2065) (end 3.81 1.2065) (layer F.SilkS) (width 0.15))
  (pad 1 thru_hole circle (at 0 0) (size 2.99974 2.99974) (drill 1.19888) (layers *.Cu *.Mask F.SilkS))
  (pad 2 thru_hole circle (at 0 12.7) (size 2.99974 2.99974) (drill 1.19888) (layers *.Cu *.Mask F.SilkS))
  (pad O1 thru_hole oval (at 17.78 12.7) (size 2 2.99974) (drill 1.19888) (layers *.Cu *.Mask F.SilkS))
  (pad P1 thru_hole oval (at 17.78 0) (size 2 2.99974) (drill 1.19888) (layers *.Cu *.Mask F.SilkS))
)
