(module ESP8266 (layer F.Cu) (tedit 57AEE6C2)
  (fp_text reference U1 (at -4.50088 2.30124) (layer F.SilkS)
    (effects (font (thickness 0.3048)))
  )
  (fp_text value ESP8266-12 (at -4.826 -10.922) (layer F.SilkS)
    (effects (font (thickness 0.3048)))
  )
  (fp_line (start -12.7 -13.89888) (end -12.7 10.09904) (layer F.SilkS) (width 0.30988))
  (fp_line (start -12.7 10.09904) (end 3.29946 10.09904) (layer F.SilkS) (width 0.30988))
  (fp_line (start 3.29946 10.09904) (end 3.29946 -14.00048) (layer F.SilkS) (width 0.30988))
  (fp_line (start 3.29946 -14.00048) (end -12.7 -14.00048) (layer F.SilkS) (width 0.30988))
  (pad 1 thru_hole circle (at -11.69924 8.10006) (size 1.27 1.27) (drill 0.7874) (layers *.Cu *.Mask F.SilkS))
  (pad 2 thru_hole circle (at -11.69924 6.10108) (size 1.27 1.27) (drill 0.7874) (layers *.Cu *.Mask F.SilkS))
  (pad 3 thru_hole circle (at -11.69924 4.09956) (size 1.27 1.27) (drill 0.7874) (layers *.Cu *.Mask F.SilkS))
  (pad 4 thru_hole circle (at -11.69924 2.10058) (size 1.27 1.27) (drill 0.7874) (layers *.Cu *.Mask F.SilkS))
  (pad 5 thru_hole circle (at -11.69924 0.09906) (size 1.27 1.27) (drill 0.7874) (layers *.Cu *.Mask F.SilkS))
  (pad 6 thru_hole circle (at -11.69924 -1.89992) (size 1.27 1.27) (drill 0.7874) (layers *.Cu *.Mask F.SilkS))
  (pad 7 thru_hole circle (at -11.69924 -3.8989) (size 1.27 1.27) (drill 0.7874) (layers *.Cu *.Mask F.SilkS))
  (pad 8 thru_hole circle (at -11.69924 -5.90042) (size 1.27 1.27) (drill 0.7874) (layers *.Cu *.Mask F.SilkS))
  (pad 9 thru_hole circle (at 2.30124 -5.90042) (size 1.27 1.27) (drill 0.7874) (layers *.Cu *.Mask F.SilkS))
  (pad 10 thru_hole circle (at 2.30124 -3.8989) (size 1.27 1.27) (drill 0.7874) (layers *.Cu *.Mask F.SilkS))
  (pad 11 thru_hole circle (at 2.30124 -1.89992) (size 1.27 1.27) (drill 0.7874) (layers *.Cu *.Mask F.SilkS))
  (pad 12 thru_hole circle (at 2.30124 0.09906) (size 1.27 1.27) (drill 0.7874) (layers *.Cu *.Mask F.SilkS))
  (pad 13 thru_hole circle (at 2.30124 2.10058) (size 1.27 1.27) (drill 0.7874) (layers *.Cu *.Mask F.SilkS))
  (pad 14 thru_hole circle (at 2.30124 4.09956) (size 1.27 1.27) (drill 0.7874) (layers *.Cu *.Mask F.SilkS))
  (pad 15 thru_hole circle (at 2.30124 6.10108) (size 1.27 1.27) (drill 0.7874) (layers *.Cu *.Mask F.SilkS))
  (pad 16 thru_hole circle (at 2.30124 8.10006) (size 1.27 1.27) (drill 0.7874) (layers *.Cu *.Mask F.SilkS))
)
