(module NUCLEO-64 (layer F.Cu) (tedit 5933F75E)
  (fp_text reference REF** (at 0 2.54) (layer F.SilkS)
    (effects (font (size 1 1) (thickness 0.15)))
  )
  (fp_text value NUCLEO-64 (at 0 -2.54) (layer F.Fab)
    (effects (font (size 1 1) (thickness 0.15)))
  )
  (fp_line (start -35.052 41.402) (end -20.828 41.402) (layer F.SilkS) (width 0.15))
  (fp_line (start -20.828 41.402) (end -19.05 43.18) (layer F.SilkS) (width 0.15))
  (fp_line (start -19.05 43.18) (end 12.192 43.18) (layer F.SilkS) (width 0.15))
  (fp_line (start 12.192 43.18) (end 13.97 41.402) (layer F.SilkS) (width 0.15))
  (fp_line (start 13.97 41.402) (end 35.052 41.402) (layer F.SilkS) (width 0.15))
  (fp_line (start -35.052 -39.37) (end 35.052 -39.37) (layer F.SilkS) (width 0.15))
  (fp_line (start 35.052 -39.37) (end 35.052 41.402) (layer F.SilkS) (width 0.15))
  (fp_line (start -35.052 41.402) (end -35.052 -39.37) (layer F.SilkS) (width 0.15))
  (pad 1 thru_hole oval (at -31.75 -7.366) (size 2 1.524) (drill 0.762) (layers *.Cu *.Mask F.SilkS))
  (pad 101 thru_hole oval (at 29.21 -7.366) (size 2 1.524) (drill 0.762) (layers *.Cu *.Mask F.SilkS))
  (pad 2 thru_hole oval (at -29.21 -7.366) (size 2 1.524) (drill 0.762) (layers *.Cu *.Mask F.SilkS))
  (pad 3 thru_hole oval (at -31.75 -4.826) (size 2 1.524) (drill 0.762) (layers *.Cu *.Mask F.SilkS))
  (pad 4 thru_hole oval (at -29.21 -4.826) (size 2 1.524) (drill 0.762) (layers *.Cu *.Mask F.SilkS))
  (pad 5 thru_hole oval (at -31.75 -2.286) (size 2 1.524) (drill 0.762) (layers *.Cu *.Mask F.SilkS))
  (pad 6 thru_hole oval (at -29.21 -2.286) (size 2 1.524) (drill 0.762) (layers *.Cu *.Mask F.SilkS))
  (pad 7 thru_hole oval (at -31.75 0.254) (size 2 1.524) (drill 0.762) (layers *.Cu *.Mask F.SilkS))
  (pad 8 thru_hole oval (at -29.21 0.254) (size 2 1.524) (drill 0.762) (layers *.Cu *.Mask F.SilkS))
  (pad 9 thru_hole oval (at -31.75 2.794) (size 2 1.524) (drill 0.762) (layers *.Cu *.Mask F.SilkS))
  (pad 10 thru_hole oval (at -29.21 2.794) (size 2 1.524) (drill 0.762) (layers *.Cu *.Mask F.SilkS))
  (pad 11 thru_hole oval (at -31.75 5.334) (size 2 1.524) (drill 0.762) (layers *.Cu *.Mask F.SilkS))
  (pad 12 thru_hole oval (at -29.21 5.334) (size 2 1.524) (drill 0.762) (layers *.Cu *.Mask F.SilkS))
  (pad 13 thru_hole oval (at -31.75 7.874) (size 2 1.524) (drill 0.762) (layers *.Cu *.Mask F.SilkS))
  (pad 14 thru_hole oval (at -29.21 7.874) (size 2 1.524) (drill 0.762) (layers *.Cu *.Mask F.SilkS))
  (pad 15 thru_hole oval (at -31.75 10.414) (size 2 1.524) (drill 0.762) (layers *.Cu *.Mask F.SilkS))
  (pad 16 thru_hole oval (at -29.21 10.414) (size 2 1.524) (drill 0.762) (layers *.Cu *.Mask F.SilkS))
  (pad 17 thru_hole oval (at -31.75 12.954) (size 2 1.524) (drill 0.762) (layers *.Cu *.Mask F.SilkS))
  (pad 18 thru_hole oval (at -29.21 12.954) (size 2 1.524) (drill 0.762) (layers *.Cu *.Mask F.SilkS))
  (pad 19 thru_hole oval (at -31.75 15.494) (size 2 1.524) (drill 0.762) (layers *.Cu *.Mask F.SilkS))
  (pad 20 thru_hole oval (at -29.21 15.494) (size 2 1.524) (drill 0.762) (layers *.Cu *.Mask F.SilkS))
  (pad 21 thru_hole oval (at -31.75 18.034) (size 2 1.524) (drill 0.762) (layers *.Cu *.Mask F.SilkS))
  (pad 22 thru_hole oval (at -29.21 18.034) (size 2 1.524) (drill 0.762) (layers *.Cu *.Mask F.SilkS))
  (pad 23 thru_hole oval (at -31.75 20.574) (size 2 1.524) (drill 0.762) (layers *.Cu *.Mask F.SilkS))
  (pad 24 thru_hole oval (at -29.21 20.574) (size 2 1.524) (drill 0.762) (layers *.Cu *.Mask F.SilkS))
  (pad 25 thru_hole oval (at -31.75 23.114) (size 2 1.524) (drill 0.762) (layers *.Cu *.Mask F.SilkS))
  (pad 26 thru_hole oval (at -29.21 23.114) (size 2 1.524) (drill 0.762) (layers *.Cu *.Mask F.SilkS))
  (pad 27 thru_hole oval (at -31.75 25.654) (size 2 1.524) (drill 0.762) (layers *.Cu *.Mask F.SilkS))
  (pad 28 thru_hole oval (at -29.21 25.654) (size 2 1.524) (drill 0.762) (layers *.Cu *.Mask F.SilkS))
  (pad 29 thru_hole oval (at -31.75 28.194) (size 2 1.524) (drill 0.762) (layers *.Cu *.Mask F.SilkS))
  (pad 30 thru_hole oval (at -29.21 28.194) (size 2 1.524) (drill 0.762) (layers *.Cu *.Mask F.SilkS))
  (pad 31 thru_hole oval (at -31.75 30.734) (size 2 1.524) (drill 0.762) (layers *.Cu *.Mask F.SilkS))
  (pad 32 thru_hole oval (at -29.21 30.734) (size 2 1.524) (drill 0.762) (layers *.Cu *.Mask F.SilkS))
  (pad 33 thru_hole oval (at -31.75 33.274) (size 2 1.524) (drill 0.762) (layers *.Cu *.Mask F.SilkS))
  (pad 34 thru_hole oval (at -29.21 33.274) (size 2 1.524) (drill 0.762) (layers *.Cu *.Mask F.SilkS))
  (pad 35 thru_hole oval (at -31.75 35.814) (size 2 1.524) (drill 0.762) (layers *.Cu *.Mask F.SilkS))
  (pad 36 thru_hole oval (at -29.21 35.814) (size 2 1.524) (drill 0.762) (layers *.Cu *.Mask F.SilkS))
  (pad 37 thru_hole oval (at -31.75 38.354) (size 2 1.524) (drill 0.762) (layers *.Cu *.Mask F.SilkS))
  (pad 38 thru_hole oval (at -29.21 38.354) (size 2 1.524) (drill 0.762) (layers *.Cu *.Mask F.SilkS))
  (pad 102 thru_hole oval (at 31.75 -7.366) (size 2 1.524) (drill 0.762) (layers *.Cu *.Mask F.SilkS))
  (pad 103 thru_hole oval (at 29.21 -4.826) (size 2 1.524) (drill 0.762) (layers *.Cu *.Mask F.SilkS))
  (pad 104 thru_hole oval (at 31.75 -4.826) (size 2 1.524) (drill 0.762) (layers *.Cu *.Mask F.SilkS))
  (pad 105 thru_hole oval (at 29.21 -2.286) (size 2 1.524) (drill 0.762) (layers *.Cu *.Mask F.SilkS))
  (pad 106 thru_hole oval (at 31.75 -2.286) (size 2 1.524) (drill 0.762) (layers *.Cu *.Mask F.SilkS))
  (pad 107 thru_hole oval (at 29.21 0.254) (size 2 1.524) (drill 0.762) (layers *.Cu *.Mask F.SilkS))
  (pad 108 thru_hole oval (at 31.75 0.254) (size 2 1.524) (drill 0.762) (layers *.Cu *.Mask F.SilkS))
  (pad 109 thru_hole oval (at 29.21 2.794) (size 2 1.524) (drill 0.762) (layers *.Cu *.Mask F.SilkS))
  (pad 110 thru_hole oval (at 31.75 2.794) (size 2 1.524) (drill 0.762) (layers *.Cu *.Mask F.SilkS))
  (pad 111 thru_hole oval (at 29.21 5.334) (size 2 1.524) (drill 0.762) (layers *.Cu *.Mask F.SilkS))
  (pad 112 thru_hole oval (at 31.75 5.334) (size 2 1.524) (drill 0.762) (layers *.Cu *.Mask F.SilkS))
  (pad 113 thru_hole oval (at 29.21 7.874) (size 2 1.524) (drill 0.762) (layers *.Cu *.Mask F.SilkS))
  (pad 114 thru_hole oval (at 31.75 7.874) (size 2 1.524) (drill 0.762) (layers *.Cu *.Mask F.SilkS))
  (pad 115 thru_hole oval (at 29.21 10.414) (size 2 1.524) (drill 0.762) (layers *.Cu *.Mask F.SilkS))
  (pad 116 thru_hole oval (at 31.75 10.414) (size 2 1.524) (drill 0.762) (layers *.Cu *.Mask F.SilkS))
  (pad 117 thru_hole oval (at 29.21 12.954) (size 2 1.524) (drill 0.762) (layers *.Cu *.Mask F.SilkS))
  (pad 118 thru_hole oval (at 31.75 12.954) (size 2 1.524) (drill 0.762) (layers *.Cu *.Mask F.SilkS))
  (pad 119 thru_hole oval (at 29.21 15.494) (size 2 1.524) (drill 0.762) (layers *.Cu *.Mask F.SilkS))
  (pad 120 thru_hole oval (at 31.75 15.494) (size 2 1.524) (drill 0.762) (layers *.Cu *.Mask F.SilkS))
  (pad 121 thru_hole oval (at 29.21 18.034) (size 2 1.524) (drill 0.762) (layers *.Cu *.Mask F.SilkS))
  (pad 122 thru_hole oval (at 31.75 18.034) (size 2 1.524) (drill 0.762) (layers *.Cu *.Mask F.SilkS))
  (pad 123 thru_hole oval (at 29.21 20.574) (size 2 1.524) (drill 0.762) (layers *.Cu *.Mask F.SilkS))
  (pad 124 thru_hole oval (at 31.75 20.574) (size 2 1.524) (drill 0.762) (layers *.Cu *.Mask F.SilkS))
  (pad 125 thru_hole oval (at 29.21 23.114) (size 2 1.524) (drill 0.762) (layers *.Cu *.Mask F.SilkS))
  (pad 126 thru_hole oval (at 31.75 23.114) (size 2 1.524) (drill 0.762) (layers *.Cu *.Mask F.SilkS))
  (pad 127 thru_hole oval (at 29.21 25.654) (size 2 1.524) (drill 0.762) (layers *.Cu *.Mask F.SilkS))
  (pad 128 thru_hole oval (at 31.75 25.654) (size 2 1.524) (drill 0.762) (layers *.Cu *.Mask F.SilkS))
  (pad 129 thru_hole oval (at 29.21 28.194) (size 2 1.524) (drill 0.762) (layers *.Cu *.Mask F.SilkS))
  (pad 130 thru_hole oval (at 31.75 28.194) (size 2 1.524) (drill 0.762) (layers *.Cu *.Mask F.SilkS))
  (pad 131 thru_hole oval (at 29.21 30.734) (size 2 1.524) (drill 0.762) (layers *.Cu *.Mask F.SilkS))
  (pad 132 thru_hole oval (at 31.75 30.734) (size 2 1.524) (drill 0.762) (layers *.Cu *.Mask F.SilkS))
  (pad 133 thru_hole oval (at 29.21 33.274) (size 2 1.524) (drill 0.762) (layers *.Cu *.Mask F.SilkS))
  (pad 134 thru_hole oval (at 31.75 33.274) (size 2 1.524) (drill 0.762) (layers *.Cu *.Mask F.SilkS))
  (pad 135 thru_hole oval (at 29.21 35.814) (size 2 1.524) (drill 0.762) (layers *.Cu *.Mask F.SilkS))
  (pad 136 thru_hole oval (at 31.75 35.814) (size 2 1.524) (drill 0.762) (layers *.Cu *.Mask F.SilkS))
  (pad 137 thru_hole oval (at 29.21 38.354) (size 2 1.524) (drill 0.762) (layers *.Cu *.Mask F.SilkS))
  (pad 138 thru_hole oval (at 31.75 38.354) (size 2 1.524) (drill 0.762) (layers *.Cu *.Mask F.SilkS))
  (pad "" thru_hole oval (at -31.75 -32.766) (size 2 1.524) (drill 0.762) (layers *.Cu *.Mask F.SilkS))
  (pad "" thru_hole oval (at 31.75 -32.766) (size 2 1.524) (drill 0.762) (layers *.Cu *.Mask F.SilkS))
  (pad "" thru_hole oval (at 31.75 -35.306) (size 2 1.524) (drill 0.762) (layers *.Cu *.Mask F.SilkS))
  (pad "" thru_hole oval (at -31.75 -35.306) (size 2 1.524) (drill 0.762) (layers *.Cu *.Mask F.SilkS))
)
