(module Housings_DIP:DIP-40_W33mm (layer F.Cu) (tedit 5A3504F8)
  (descr "40-lead dip package, row spacing 25.4 mm (1000 mils), longer pads")
  (tags "dil dip 2.54 1000")
  (fp_text reference REF** (at 16.51 3.81) (layer F.SilkS)
    (effects (font (size 1 1) (thickness 0.15)))
  )
  (fp_text value DIP-40_W33mm (at 16.51 6.35) (layer F.Fab)
    (effects (font (size 1 1) (thickness 0.15)))
  )
  (fp_line (start 1.27 -1.27) (end 31.75 -1.27) (layer F.SilkS) (width 0.15))
  (fp_line (start 1.27 49.53) (end 31.75 49.53) (layer F.SilkS) (width 0.15))
  (fp_line (start 1.27 -1.27) (end 1.27 49.53) (layer F.SilkS) (width 0.15))
  (fp_line (start 31.75 49.53) (end 31.75 -1.27) (layer F.SilkS) (width 0.15))
  (pad 1 thru_hole circle (at 0 0) (size 1.6 1.6) (drill 0.8) (layers *.Cu *.Mask F.SilkS))
  (pad 2 thru_hole circle (at 0 2.54) (size 1.6 1.6) (drill 0.8) (layers *.Cu *.Mask F.SilkS))
  (pad 3 thru_hole circle (at 0 5.08) (size 1.6 1.6) (drill 0.8) (layers *.Cu *.Mask F.SilkS))
  (pad 4 thru_hole circle (at 0 7.62) (size 1.6 1.6) (drill 0.8) (layers *.Cu *.Mask F.SilkS))
  (pad 5 thru_hole circle (at 0 10.16) (size 1.6 1.6) (drill 0.8) (layers *.Cu *.Mask F.SilkS))
  (pad 6 thru_hole circle (at 0 12.7) (size 1.6 1.6) (drill 0.8) (layers *.Cu *.Mask F.SilkS))
  (pad 7 thru_hole circle (at 0 15.24) (size 1.6 1.6) (drill 0.8) (layers *.Cu *.Mask F.SilkS))
  (pad 8 thru_hole circle (at 0 17.78) (size 1.6 1.6) (drill 0.8) (layers *.Cu *.Mask F.SilkS))
  (pad 9 thru_hole circle (at 0 20.32) (size 1.6 1.6) (drill 0.8) (layers *.Cu *.Mask F.SilkS))
  (pad 10 thru_hole circle (at 0 22.86) (size 1.6 1.6) (drill 0.8) (layers *.Cu *.Mask F.SilkS))
  (pad 11 thru_hole circle (at 0 25.4) (size 1.6 1.6) (drill 0.8) (layers *.Cu *.Mask F.SilkS))
  (pad 12 thru_hole circle (at 0 27.94) (size 1.6 1.6) (drill 0.8) (layers *.Cu *.Mask F.SilkS))
  (pad 13 thru_hole circle (at 0 30.48) (size 1.6 1.6) (drill 0.8) (layers *.Cu *.Mask F.SilkS))
  (pad 14 thru_hole circle (at 0 33.02) (size 1.6 1.6) (drill 0.8) (layers *.Cu *.Mask F.SilkS))
  (pad 15 thru_hole circle (at 0 35.56) (size 1.6 1.6) (drill 0.8) (layers *.Cu *.Mask F.SilkS))
  (pad 16 thru_hole circle (at 0 38.1) (size 1.6 1.6) (drill 0.8) (layers *.Cu *.Mask F.SilkS))
  (pad 17 thru_hole circle (at 0 40.64) (size 1.6 1.6) (drill 0.8) (layers *.Cu *.Mask F.SilkS))
  (pad 18 thru_hole circle (at 0 43.18) (size 1.6 1.6) (drill 0.8) (layers *.Cu *.Mask F.SilkS))
  (pad 19 thru_hole circle (at 0 45.72) (size 1.6 1.6) (drill 0.8) (layers *.Cu *.Mask F.SilkS))
  (pad 20 thru_hole circle (at 0 48.26) (size 1.6 1.6) (drill 0.8) (layers *.Cu *.Mask F.SilkS))
  (pad 21 thru_hole circle (at 33.02 48.26) (size 1.6 1.6) (drill 0.8) (layers *.Cu *.Mask F.SilkS))
  (pad 22 thru_hole circle (at 33.02 45.72) (size 1.6 1.6) (drill 0.8) (layers *.Cu *.Mask F.SilkS))
  (pad 23 thru_hole circle (at 33.02 43.18) (size 1.6 1.6) (drill 0.8) (layers *.Cu *.Mask F.SilkS))
  (pad 24 thru_hole circle (at 33.02 40.64) (size 1.6 1.6) (drill 0.8) (layers *.Cu *.Mask F.SilkS))
  (pad 25 thru_hole circle (at 33.02 38.1) (size 1.6 1.6) (drill 0.8) (layers *.Cu *.Mask F.SilkS))
  (pad 26 thru_hole circle (at 33.02 35.56) (size 1.6 1.6) (drill 0.8) (layers *.Cu *.Mask F.SilkS))
  (pad 27 thru_hole circle (at 33.02 33.02) (size 1.6 1.6) (drill 0.8) (layers *.Cu *.Mask F.SilkS))
  (pad 28 thru_hole circle (at 33.02 30.48) (size 1.6 1.6) (drill 0.8) (layers *.Cu *.Mask F.SilkS))
  (pad 29 thru_hole circle (at 33.02 27.94) (size 1.6 1.6) (drill 0.8) (layers *.Cu *.Mask F.SilkS))
  (pad 30 thru_hole circle (at 33.02 25.4) (size 1.6 1.6) (drill 0.8) (layers *.Cu *.Mask F.SilkS))
  (pad 31 thru_hole circle (at 33.02 22.86) (size 1.6 1.6) (drill 0.8) (layers *.Cu *.Mask F.SilkS))
  (pad 32 thru_hole circle (at 33.02 20.32) (size 1.6 1.6) (drill 0.8) (layers *.Cu *.Mask F.SilkS))
  (pad 33 thru_hole circle (at 33.02 17.78) (size 1.6 1.6) (drill 0.8) (layers *.Cu *.Mask F.SilkS))
  (pad 34 thru_hole circle (at 33.02 15.24) (size 1.6 1.6) (drill 0.8) (layers *.Cu *.Mask F.SilkS))
  (pad 35 thru_hole circle (at 33.02 12.7) (size 1.6 1.6) (drill 0.8) (layers *.Cu *.Mask F.SilkS))
  (pad 36 thru_hole circle (at 33.02 10.16) (size 1.6 1.6) (drill 0.8) (layers *.Cu *.Mask F.SilkS))
  (pad 37 thru_hole circle (at 33.02 7.62) (size 1.6 1.6) (drill 0.8) (layers *.Cu *.Mask F.SilkS))
  (pad 38 thru_hole circle (at 33.02 5.08) (size 1.6 1.6) (drill 0.8) (layers *.Cu *.Mask F.SilkS))
  (pad 39 thru_hole circle (at 33.02 2.54) (size 1.6 1.6) (drill 0.8) (layers *.Cu *.Mask F.SilkS))
  (pad 40 thru_hole circle (at 33.02 0) (size 1.6 1.6) (drill 0.8) (layers *.Cu *.Mask F.SilkS))
  (model Housings_DIP.3dshapes/DIP-40_W25.4mm_LongPads.wrl
    (at (xyz 0 0 0))
    (scale (xyz 1 1 1))
    (rotate (xyz 0 0 0))
  )
)
