(module Housings_SIP:SIP9_Housing (layer F.Cu) (tedit 58377133)
  (descr SIP9)
  (tags SIP9)
  (fp_text reference REF** (at -1.3335 -3.6195) (layer F.SilkS)
    (effects (font (size 1 1) (thickness 0.15)))
  )
  (fp_text value SIP8_Housing (at -0.1 3.7) (layer F.Fab)
    (effects (font (size 1 1) (thickness 0.15)))
  )
  (fp_line (start -8.7 1.7) (end -8.7 1) (layer F.SilkS) (width 0.15))
  (fp_line (start -8.7 -1.7) (end -8.7 -1) (layer F.SilkS) (width 0.15))
  (fp_line (start 0 1.7) (end -11.2 1.7) (layer F.SilkS) (width 0.15))
  (fp_line (start -11.2 1.7) (end -11.2 1.4) (layer F.SilkS) (width 0.15))
  (fp_line (start 0 1.7) (end 8.66 1.7) (layer F.SilkS) (width 0.15))
  (fp_line (start 8.66 1.7) (end 8.66 1) (layer F.SilkS) (width 0.15))
  (fp_line (start 0.1 -1.7) (end -11.2 -1.7) (layer F.SilkS) (width 0.15))
  (fp_line (start -11.2 -1.7) (end -11.2 -1.4) (layer F.SilkS) (width 0.15))
  (fp_line (start 0 -1.7) (end 8.66 -1.7) (layer F.SilkS) (width 0.15))
  (fp_line (start 8.66 -1.7) (end 8.66 -1.1) (layer F.SilkS) (width 0.15))
  (pad 1 thru_hole rect (at -10.16 0 90) (size 1.8 1.8) (drill 1) (layers *.Cu *.Mask F.SilkS))
  (pad 2 thru_hole circle (at -7.62 0 90) (size 1.8 1.8) (drill 1) (layers *.Cu *.Mask F.SilkS))
  (pad 3 thru_hole circle (at -5.08 0 90) (size 1.8 1.8) (drill 1) (layers *.Cu *.Mask F.SilkS))
  (pad 4 thru_hole circle (at -2.54 0 90) (size 1.8 1.8) (drill 1) (layers *.Cu *.Mask F.SilkS))
  (pad 5 thru_hole circle (at 0 0 90) (size 1.8 1.8) (drill 1) (layers *.Cu *.Mask F.SilkS))
  (pad 6 thru_hole circle (at 2.54 0 90) (size 1.8 1.8) (drill 1) (layers *.Cu *.Mask F.SilkS))
  (pad 7 thru_hole circle (at 5.08 0 90) (size 1.8 1.8) (drill 1) (layers *.Cu *.Mask F.SilkS))
  (pad 8 thru_hole circle (at 7.62 0 90) (size 1.8 1.8) (drill 1) (layers *.Cu *.Mask F.SilkS))
  (model Housings_SIP.3dshapes/SIP9_Housing.wrl
    (at (xyz 0 0 0))
    (scale (xyz 0.3937 0.3937 0.3937))
    (rotate (xyz 0 0 0))
  )
)
