(module power:IRM-01-XX (layer F.Cu) (tedit 59AB3763)
  (fp_text reference U1 (at -12.319 7.7343) (layer F.SilkS)
    (effects (font (thickness 0.3048)))
  )
  (fp_text value IRM-01-5 (at -12.0142 12.8143) (layer F.SilkS)
    (effects (font (thickness 0.3048)))
  )
  (fp_line (start -30.8102 -3.5433) (end -30.8102 18.6563) (layer F.SilkS) (width 0.381))
  (fp_line (start -30.8102 18.6563) (end 2.8702 18.6563) (layer F.SilkS) (width 0.381))
  (fp_line (start 2.8702 18.6563) (end 2.8702 -3.5433) (layer F.SilkS) (width 0.381))
  (fp_line (start 2.8702 -3.5433) (end -30.8102 -3.5433) (layer F.SilkS) (width 0.381))
  (pad 2 thru_hole oval (at 0 15.24) (size 3.81 3.81) (drill 0.8128) (layers *.Cu *.Mask F.SilkS))
  (pad 1 thru_hole oval (at 0 0) (size 3.81 3.81) (drill 0.8128) (layers *.Cu *.Mask F.SilkS))
  (pad 3 thru_hole circle (at -28.0035 0) (size 3.81 3.81) (drill 0.8128) (layers *.Cu *.Mask F.SilkS))
  (pad 4 thru_hole circle (at -28.067 7.62) (size 3.81 3.81) (drill 0.8128) (layers *.Cu *.Mask F.SilkS))
)
