(module MP1584-FIXED-MODULE (layer F.Cu) (tedit 5EA8439B)
  (fp_text reference REF** (at 1.27 14.605) (layer F.SilkS)
    (effects (font (size 1 1) (thickness 0.15)))
  )
  (fp_text value MP1584-FIXED-MODULE (at -1.905 5.715 90) (layer F.Fab)
    (effects (font (size 1 1) (thickness 0.15)))
  )
  (fp_line (start 0.635 13.335) (end -6.35 13.335) (layer F.SilkS) (width 0.15))
  (fp_line (start -6.35 13.335) (end -6.35 5.715) (layer F.SilkS) (width 0.15))
  (fp_line (start -6.35 5.715) (end 0.635 5.715) (layer F.SilkS) (width 0.15))
  (fp_line (start 0.635 -1.27) (end 0.635 13.97) (layer F.SilkS) (width 0.15))
  (fp_line (start 0.635 13.97) (end 2.54 13.97) (layer F.SilkS) (width 0.15))
  (fp_line (start 2.54 13.97) (end 2.54 -1.27) (layer F.SilkS) (width 0.15))
  (fp_line (start 2.54 -1.27) (end 0.635 -1.27) (layer F.SilkS) (width 0.15))
  (pad 1 thru_hole circle (at 0 0) (size 1.524 1.524) (drill 0.762) (layers *.Cu *.Mask F.SilkS))
  (pad 1 thru_hole circle (at 0 2.54) (size 1.524 1.524) (drill 0.762) (layers *.Cu *.Mask F.SilkS))
  (pad 2 thru_hole circle (at 0 5.08) (size 1.524 1.524) (drill 0.762) (layers *.Cu *.Mask F.SilkS))
  (pad 3 thru_hole circle (at 0 7.62) (size 1.524 1.524) (drill 0.762) (layers *.Cu *.Mask F.SilkS))
  (pad 4 thru_hole circle (at 0 10.16) (size 1.524 1.524) (drill 0.762) (layers *.Cu *.Mask F.SilkS))
  (pad 4 thru_hole circle (at 0 12.7) (size 1.524 1.524) (drill 0.762) (layers *.Cu *.Mask F.SilkS))
)
