(module U1V11F5-MODULE (layer F.Cu) (tedit 5DC2FB10)
  (fp_text reference REF** (at 4.572 -3.556) (layer F.SilkS)
    (effects (font (size 1 1) (thickness 0.15)))
  )
  (fp_text value U1V11F5-MODULE (at 3.81 -2.286) (layer F.Fab)
    (effects (font (size 1 1) (thickness 0.15)))
  )
  (fp_line (start 0 0) (end 0 -1.016) (layer F.SilkS) (width 0.15))
  (fp_line (start 2.54 0) (end 2.54 -1.016) (layer F.SilkS) (width 0.15))
  (fp_line (start 7.62 0) (end 7.62 -1.016) (layer F.SilkS) (width 0.15))
  (fp_line (start 5.08 0) (end 5.08 -1.016) (layer F.SilkS) (width 0.15))
  (fp_line (start -1.778 -1.016) (end 9.398 -1.016) (layer F.SilkS) (width 0.15))
  (fp_line (start 9.398 -1.016) (end 9.398 -1.524) (layer F.SilkS) (width 0.15))
  (fp_line (start 9.398 -1.524) (end -1.778 -1.524) (layer F.SilkS) (width 0.15))
  (fp_line (start -1.778 -1.524) (end -1.778 -1.016) (layer F.SilkS) (width 0.15))
  (pad 1 thru_hole circle (at 0 0) (size 1.524 1.524) (drill 0.762) (layers *.Cu *.Mask F.SilkS))
  (pad 2 thru_hole circle (at 2.54 0) (size 1.524 1.524) (drill 0.762) (layers *.Cu *.Mask F.SilkS))
  (pad 3 thru_hole circle (at 5.08 0) (size 1.524 1.524) (drill 0.762) (layers *.Cu *.Mask F.SilkS))
  (pad 4 thru_hole circle (at 7.62 0) (size 1.524 1.524) (drill 0.762) (layers *.Cu *.Mask F.SilkS))
)
