(module Transfo_0.5VA_BV_202_XXX (layer F.Cu) (tedit 59A18BA5)
  (fp_text reference REF** (at 7.747 15.24) (layer F.SilkS)
    (effects (font (size 1 1) (thickness 0.15)))
  )
  (fp_text value Transfo_0.5VA_BV_202_XXX (at 7.747 6.096) (layer F.Fab)
    (effects (font (size 1 1) (thickness 0.15)))
  )
  (fp_line (start -4.191 -4.699) (end 19.05 -4.699) (layer F.SilkS) (width 0.15))
  (fp_line (start 19.05 -4.699) (end 19.05 17.145) (layer F.SilkS) (width 0.15))
  (fp_line (start 19.05 17.145) (end -4.191 17.145) (layer F.SilkS) (width 0.15))
  (fp_line (start -4.191 17.145) (end -4.191 -4.699) (layer F.SilkS) (width 0.15))
  (pad 1 thru_hole circle (at 0 0) (size 2.54 2.54) (drill 0.762) (layers *.Cu *.Mask F.SilkS))
  (pad "" thru_hole circle (at 5.08 0) (size 2.54 2.54) (drill 0.762) (layers *.Cu *.Mask F.SilkS))
  (pad "" thru_hole circle (at 10.16 0) (size 2.54 2.54) (drill 0.762) (layers *.Cu *.Mask F.SilkS))
  (pad 2 thru_hole circle (at 15.24 0) (size 2.54 2.54) (drill 0.762) (layers *.Cu *.Mask F.SilkS))
  (pad "" thru_hole circle (at -0.127 12.446) (size 2.54 2.54) (drill 0.762) (layers *.Cu *.Mask F.SilkS))
  (pad 3 thru_hole circle (at 4.953 12.446) (size 2.54 2.54) (drill 0.762) (layers *.Cu *.Mask F.SilkS))
  (pad 4 thru_hole circle (at 10.033 12.446) (size 2.54 2.54) (drill 0.762) (layers *.Cu *.Mask F.SilkS))
  (pad "" thru_hole circle (at 15.113 12.446) (size 2.54 2.54) (drill 0.762) (layers *.Cu *.Mask F.SilkS))
)
