(module C_Axial_D16_L32_P35 (layer F.Cu) (tedit 5FBE3C95)
  (descr "Axial Capacitor Diameter 16mm x Length 32mm, Pitch 35mm")
  (tags Capacitor)
  (fp_text reference REF** (at 18.0975 -2.54) (layer F.SilkS)
    (effects (font (size 1 1) (thickness 0.15)))
  )
  (fp_text value C_Axial_D16_L32_P35 (at 18.923 3.81) (layer F.Fab)
    (effects (font (size 1 1) (thickness 0.15)))
  )
  (fp_line (start -1.27 -8.89) (end 36.195 -8.89) (layer F.CrtYd) (width 0.05))
  (fp_line (start 36.195 -8.89) (end 36.195 8.89) (layer F.SilkS) (width 0.05))
  (fp_line (start 36.195 8.89) (end -1.27 8.89) (layer F.CrtYd) (width 0.05))
  (fp_line (start -1.27 8.89) (end -1.27 -8.89) (layer F.CrtYd) (width 0.05))
  (fp_line (start 33.655 -8.255) (end 33.655 8.255) (layer F.SilkS) (width 0.15))
  (fp_line (start 33.655 8.255) (end 1.27 8.255) (layer F.SilkS) (width 0.15))
  (fp_line (start 1.27 8.255) (end 1.27 -8.255) (layer F.SilkS) (width 0.15))
  (fp_line (start 1.27 -8.255) (end 33.655 -8.255) (layer F.SilkS) (width 0.15))
  (fp_line (start 33.5 0) (end 35 0) (layer F.SilkS) (width 0.15))
  (fp_line (start 1.5 0) (end 0 0) (layer F.SilkS) (width 0.15))
  (pad 1 thru_hole rect (at 0.0635 0) (size 2.54 2.54) (drill 1) (layers *.Cu *.Mask F.SilkS))
  (pad 2 thru_hole circle (at 35.052 0) (size 2.54 2.54) (drill 1) (layers *.Cu *.Mask F.SilkS))
  (model Capacitors_ThroughHole.3dshapes/C_Axial_D16_L40_P48.wrl
    (at (xyz 0.944882 0 0))
    (scale (xyz 1 1 1))
    (rotate (xyz 0 0 180))
  )
)
