(module C_Axial_D17_L28_P32 (layer F.Cu) (tedit 5FBE3BAA)
  (descr "Axial Capacitor Diameter 16mm x Length 32mm, Pitch 35mm")
  (tags Capacitor)
  (fp_text reference REF** (at 15.24 -2.54) (layer F.SilkS)
    (effects (font (size 1 1) (thickness 0.15)))
  )
  (fp_text value C_Axial_D17_L28_P32 (at 15.24 3.81) (layer F.Fab)
    (effects (font (size 1 1) (thickness 0.15)))
  )
  (fp_line (start 29.21 0) (end 30.48 0) (layer F.SilkS) (width 0.15))
  (fp_line (start 0 0) (end 1.27 0) (layer F.SilkS) (width 0.15))
  (fp_line (start -1.27 -9.525) (end -1.27 9.525) (layer F.CrtYd) (width 0.05))
  (fp_line (start -1.27 9.525) (end 31.75 9.525) (layer F.CrtYd) (width 0.05))
  (fp_line (start -1.27 -9.525) (end 31.75 -9.525) (layer F.CrtYd) (width 0.05))
  (fp_line (start 31.75 -9.525) (end 31.75 9.525) (layer F.CrtYd) (width 0.05))
  (fp_line (start 1.27 -8.89) (end 1.27 8.89) (layer F.SilkS) (width 0.15))
  (fp_line (start 1.27 8.89) (end 29.21 8.89) (layer F.SilkS) (width 0.15))
  (fp_line (start 29.21 8.89) (end 29.21 -8.89) (layer F.SilkS) (width 0.15))
  (fp_line (start 29.21 -8.89) (end 1.27 -8.89) (layer F.SilkS) (width 0.15))
  (pad 1 thru_hole rect (at 0.0635 0) (size 2.54 2.54) (drill 1) (layers *.Cu *.Mask F.SilkS))
  (pad 2 thru_hole circle (at 30.48 0) (size 2.54 2.54) (drill 1) (layers *.Cu *.Mask F.SilkS))
  (model Capacitors_ThroughHole.3dshapes/C_Axial_D16_L28_P32.wrl
    (at (xyz 0.944882 0 0))
    (scale (xyz 1 1 1))
    (rotate (xyz 0 0 180))
  )
)
