(module Capacitors_ThroughHole:C_Axial_D19_L40_P48 (layer F.Cu) (tedit 5958D787)
  (descr "Axial Electrolytic Capacitor Diameter 19mm x Length 40mm, Pitch 48mm")
  (tags "Electrolytic Capacitor")
  (fp_text reference REF** (at 16.637 -2.54) (layer F.SilkS)
    (effects (font (size 1 1) (thickness 0.15)))
  )
  (fp_text value C_Axial_D19_L40_P48 (at 22.733 3.81) (layer F.Fab)
    (effects (font (size 1 1) (thickness 0.15)))
  )
  (fp_line (start 10 9.524) (end 44 9.524) (layer F.SilkS) (width 0.15))
  (fp_line (start 9 9.524) (end 4 9.524) (layer F.SilkS) (width 0.15))
  (fp_line (start 9 -9.524) (end 4 -9.524) (layer F.SilkS) (width 0.15))
  (fp_line (start 44 -9.524) (end 10 -9.524) (layer F.SilkS) (width 0.15))
  (fp_line (start 44 9.524) (end 44 -9.524) (layer F.SilkS) (width 0.15))
  (fp_line (start 43 -9.524) (end 43 9.524) (layer F.SilkS) (width 0.15))
  (fp_line (start 4 9.524) (end 4 -9.524) (layer F.SilkS) (width 0.15))
  (fp_line (start 10 9.524) (end 10 8.524) (layer F.SilkS) (width 0.15))
  (fp_line (start 10 8.524) (end 9 8.524) (layer F.SilkS) (width 0.15))
  (fp_line (start 9 8.524) (end 9 9.524) (layer F.SilkS) (width 0.15))
  (fp_line (start 9 -9.524) (end 9 -8.524) (layer F.SilkS) (width 0.15))
  (fp_line (start 9 -8.524) (end 10 -8.524) (layer F.SilkS) (width 0.15))
  (fp_line (start 10 -8.524) (end 10 -9.524) (layer F.SilkS) (width 0.15))
  (fp_line (start 44 0) (end 47 0) (layer F.SilkS) (width 0.15))
  (fp_line (start 4 0) (end 1 0) (layer F.SilkS) (width 0.15))
  (fp_line (start 38.5 0) (end 41 0) (layer F.SilkS) (width 0.15))
  (fp_line (start 6 0) (end 8 0) (layer F.SilkS) (width 0.15))
  (fp_line (start 7 1) (end 7 -1) (layer F.SilkS) (width 0.15))
  (fp_line (start -1 -9.824) (end 49 -9.824) (layer F.CrtYd) (width 0.05))
  (fp_line (start 49 -9.824) (end 49 9.824) (layer F.CrtYd) (width 0.05))
  (fp_line (start 49 9.824) (end -1 9.824) (layer F.CrtYd) (width 0.05))
  (fp_line (start -1 9.824) (end -1 -9.824) (layer F.CrtYd) (width 0.05))
  (pad 1 thru_hole rect (at 0 0) (size 2.54 2.54) (drill 1) (layers *.Cu *.Mask F.SilkS))
  (pad 2 thru_hole circle (at 48 0) (size 2.54 2.54) (drill 1) (layers *.Cu *.Mask F.SilkS))
  (model Capacitors_ThroughHole.3dshapes/C_Axial_D16_L40_P48.wrl
    (at (xyz 0.944882 0 0))
    (scale (xyz 1 1 1))
    (rotate (xyz 0 0 180))
  )
)
