(module C_Radial_D40_L50_P22.5 (layer F.Cu) (tedit 58A38EDA)
  (descr "Radial Electrolytic Capacitor Diameter 40mm x Length 50mm, Pitch 22.5mm")
  (tags "Electrolytic Capacitor")
  (fp_text reference REF** (at -18.7365 0.1435 90) (layer F.SilkS)
    (effects (font (size 1 1) (thickness 0.15)))
  )
  (fp_text value C_Radial_D40_L50_P22.5 (at 18.8635 0.1435 90) (layer F.Fab)
    (effects (font (size 1 1) (thickness 0.15)))
  )
  (fp_circle (center 0 0.127) (end 11.249 0.635) (layer F.SilkS) (width 0.15))
  (fp_circle (center 0.0635 0.1435) (end -19.9365 0.1435) (layer F.SilkS) (width 0.15))
  (fp_circle (center 0.0635 0.1435) (end -20.4365 0.1435) (layer F.CrtYd) (width 0.05))
  (pad 1 thru_hole rect (at 0.0635 11.3665 90) (size 5.08 5.08) (drill 1.5) (layers *.Cu *.Mask F.SilkS))
  (pad 2 thru_hole circle (at 0.0635 -11.1125 90) (size 5.08 5.08) (drill 1.5) (layers *.Cu *.Mask F.SilkS))
  (pad "" thru_hole circle (at -8.89 7.112) (size 5.08 5.08) (drill 0.762) (layers *.Cu *.Mask F.SilkS))
  (pad "" thru_hole circle (at 8.89 7.112) (size 5.08 5.08) (drill 0.762) (layers *.Cu *.Mask F.SilkS))
  (model Capacitors_ThroughHole.3dshapes/C_Radial_D35_L51_P10.wrl
    (at (xyz 0.19685 0 0))
    (scale (xyz 1 1 1))
    (rotate (xyz 0 0 90))
  )
)
