(module Capacitors_ThroughHole:C_Rect_L7_W7_P5 (layer F.Cu) (tedit 597055FC)
  (descr "Film Capacitor Length 7mm x Width 7mm")
  (tags Capacitor)
  (fp_text reference REF** (at 2.4765 -4.6355) (layer F.SilkS)
    (effects (font (size 1 1) (thickness 0.15)))
  )
  (fp_text value C_Rect_L7_W7_P5 (at 2.4765 4.699) (layer F.Fab)
    (effects (font (size 1 1) (thickness 0.15)))
  )
  (fp_line (start -1.25 -3.8215) (end 6.377 -3.8215) (layer F.CrtYd) (width 0.05))
  (fp_line (start 6.377 -3.8215) (end 6.377 3.8215) (layer F.CrtYd) (width 0.05))
  (fp_line (start 6.377 3.8215) (end -1.25 3.8215) (layer F.CrtYd) (width 0.05))
  (fp_line (start -1.25 3.8215) (end -1.25 -3.8215) (layer F.CrtYd) (width 0.05))
  (fp_line (start -1.0635 -3.635) (end 6.1905 -3.635) (layer F.SilkS) (width 0.15))
  (fp_line (start 6.1905 -3.635) (end 6.1905 3.635) (layer F.SilkS) (width 0.15))
  (fp_line (start 6.1905 3.635) (end -1.0635 3.635) (layer F.SilkS) (width 0.15))
  (fp_line (start -1.0635 3.635) (end -1.0635 -3.635) (layer F.SilkS) (width 0.15))
  (pad 1 thru_hole rect (at 0 0) (size 1.3 1.3) (drill 0.8) (layers *.Cu *.Mask F.SilkS))
  (pad 2 thru_hole circle (at 5.08 0) (size 1.3 1.3) (drill 0.8) (layers *.Cu *.Mask F.SilkS))
  (model Capacitors_ThroughHole.3dshapes/C_Rect_L7_W6_P5.wrl
    (at (xyz 0.098425 0 0))
    (scale (xyz 1 1 1))
    (rotate (xyz 0 0 0))
  )
)
