(module C_Rect_L26_W9_H18_P20_Horizontal (layer F.Cu) (tedit 5D46E812)
  (fp_text reference REF** (at 9.906 8.001) (layer F.SilkS)
    (effects (font (size 1 1) (thickness 0.15)))
  )
  (fp_text value C_Rect_L26_W9_H18_P20_Horizontal (at 10.033 3.175) (layer F.Fab)
    (effects (font (size 1 1) (thickness 0.15)))
  )
  (fp_line (start 20.066 0) (end 20.066 1.27) (layer F.SilkS) (width 0.15))
  (fp_line (start 0 0.127) (end 0 1.27) (layer F.SilkS) (width 0.15))
  (fp_line (start -3.048 1.27) (end 23.114 1.27) (layer F.SilkS) (width 0.15))
  (fp_line (start 23.114 1.27) (end 23.114 19.304) (layer F.SilkS) (width 0.15))
  (fp_line (start 23.114 19.304) (end -3.048 19.304) (layer F.SilkS) (width 0.15))
  (fp_line (start -3.048 19.304) (end -3.048 1.27) (layer F.SilkS) (width 0.15))
  (pad 1 thru_hole circle (at 0 0) (size 1.524 1.524) (drill 0.762) (layers *.Cu *.Mask F.SilkS))
  (pad 2 thru_hole circle (at 20.066 0) (size 1.524 1.524) (drill 0.762) (layers *.Cu *.Mask F.SilkS))
)
