(module C_Rect_L18_W10_P15 (layer F.Cu) (tedit 5D49F9E1)
  (fp_text reference REF** (at 7.112 1.524) (layer F.SilkS)
    (effects (font (size 1 1) (thickness 0.15)))
  )
  (fp_text value C_Rect_L18_W10_P15 (at 7.112 -2.032) (layer F.Fab)
    (effects (font (size 1 1) (thickness 0.15)))
  )
  (fp_line (start -4.064 -5.08) (end 18.288 -5.08) (layer F.SilkS) (width 0.15))
  (fp_line (start 18.288 -5.08) (end 18.288 5.08) (layer F.SilkS) (width 0.15))
  (fp_line (start 18.288 5.08) (end -4.064 5.08) (layer F.SilkS) (width 0.15))
  (fp_line (start -4.064 5.08) (end -4.064 -5.08) (layer F.SilkS) (width 0.15))
  (pad 1 thru_hole circle (at 0 0) (size 1.524 1.524) (drill 0.762) (layers *.Cu *.Mask F.SilkS))
  (pad 2 thru_hole circle (at 15.24 0) (size 1.524 1.524) (drill 0.762) (layers *.Cu *.Mask F.SilkS))
)
