(module inductor-D77 (layer F.Cu) (tedit 5FD7897A)
  (fp_text reference REF** (at 2 1) (layer F.SilkS)
    (effects (font (size 1 1) (thickness 0.15)))
  )
  (fp_text value inductor-D77 (at 0 -7) (layer F.Fab)
    (effects (font (size 1 1) (thickness 0.15)))
  )
  (fp_line (start -33.655 -0.635) (end -27.305 -0.635) (layer F.SilkS) (width 0.15))
  (fp_line (start -27.305 -0.635) (end -27.305 0.635) (layer F.SilkS) (width 0.15))
  (fp_line (start -27.305 0.635) (end -33.655 0.635) (layer F.SilkS) (width 0.15))
  (fp_line (start 33.655 -0.635) (end 7.62 -0.635) (layer F.SilkS) (width 0.15))
  (fp_line (start 7.62 -0.635) (end 7.62 0.635) (layer F.SilkS) (width 0.15))
  (fp_line (start 7.62 0.635) (end 33.655 0.635) (layer F.SilkS) (width 0.15))
  (fp_circle (center 0 0) (end 0 -33.655) (layer F.SilkS) (width 0.15))
  (pad "" thru_hole circle (at 0 0) (size 5 5) (drill 0.762) (layers *.Cu *.Mask F.SilkS))
  (pad 1 thru_hole circle (at 8.255 0) (size 10 10) (drill 0.762) (layers *.Cu *.Mask F.SilkS))
  (pad 2 thru_hole circle (at -33.655 0) (size 10 10) (drill 0.762) (layers *.Cu *.Mask F.SilkS))
)
