(module library:inductor-5x5 (layer F.Cu) (tedit 5BB9DBC6)
  (fp_text reference REF** (at 2.54 -10.16 180) (layer F.SilkS)
    (effects (font (size 1 1) (thickness 0.15)))
  )
  (fp_text value inductor-5x5 (at 2.54 -5.08) (layer F.Fab)
    (effects (font (size 1 1) (thickness 0.15)))
  )
  (fp_line (start 0 -5.08) (end 0 -15.24) (layer F.SilkS) (width 0.15))
  (fp_line (start 0 -15.24) (end 5.08 -15.24) (layer F.SilkS) (width 0.15))
  (fp_line (start 5.08 -15.24) (end 5.08 -5.08) (layer F.SilkS) (width 0.15))
  (fp_line (start 5.08 -5.08) (end 0 -5.08) (layer F.SilkS) (width 0.15))
  (pad 1 thru_hole circle (at 0 -7.62 90) (size 2.54 2.54) (drill 0.762) (layers *.Cu *.Mask F.SilkS))
  (pad 2 thru_hole circle (at 0 -12.954 90) (size 2.54 2.54) (drill 0.762) (layers *.Cu *.Mask F.SilkS))
  (pad 3 thru_hole circle (at 5.08 -7.62 90) (size 2.54 2.54) (drill 0.762) (layers *.Cu *.Mask F.SilkS))
  (pad 4 thru_hole circle (at 5.08 -12.7 90) (size 2.54 2.54) (drill 0.762) (layers *.Cu *.Mask F.SilkS))
)
