(module Potentiometer_5x6 (layer F.Cu) (tedit 59D45941)
  (descr "Potentiometer, Trimmer, RM-065")
  (tags "Potentiometer, Trimmer, RM-065")
  (fp_text reference REF** (at 6.30936 -6.30936) (layer F.SilkS)
    (effects (font (size 1 1) (thickness 0.15)))
  )
  (fp_text value Potentiometer_5x6 (at 2.49936 2.58064) (layer F.Fab)
    (effects (font (size 1 1) (thickness 0.15)))
  )
  (fp_line (start 2.24536 -2.88036) (end 2.24536 -3.64236) (layer F.SilkS) (width 0.15))
  (fp_line (start 2.75336 -2.88036) (end 2.75336 -3.64236) (layer F.SilkS) (width 0.15))
  (fp_arc (start 2.49936 -2.49936) (end 4.15036 -2.24536) (angle 90) (layer F.SilkS) (width 0.15))
  (fp_arc (start 2.49936 -2.49936) (end 2.62636 -0.84836) (angle 90) (layer F.SilkS) (width 0.15))
  (fp_arc (start 2.49936 -2.49936) (end 3.38836 -3.89636) (angle 90) (layer F.SilkS) (width 0.15))
  (fp_arc (start 2.49936 -2.49936) (end 1.10236 -1.61036) (angle 90) (layer F.SilkS) (width 0.15))
  (fp_line (start -0.80264 1.31064) (end -0.80264 1.18364) (layer F.SilkS) (width 0.15))
  (fp_line (start -0.80264 -2.49936) (end -0.80264 -1.10236) (layer F.SilkS) (width 0.15))
  (fp_line (start 5.80136 1.31064) (end 5.80136 1.18364) (layer F.SilkS) (width 0.15))
  (fp_line (start 5.80136 -2.49936) (end 5.80136 -1.10236) (layer F.SilkS) (width 0.15))
  (fp_line (start 1.35636 0.42164) (end 1.73736 0.54864) (layer F.SilkS) (width 0.15))
  (fp_line (start 1.73736 0.54864) (end 2.49936 0.67564) (layer F.SilkS) (width 0.15))
  (fp_line (start 2.49936 0.67564) (end 3.26136 0.54864) (layer F.SilkS) (width 0.15))
  (fp_line (start 3.26136 0.54864) (end 3.64236 0.42164) (layer F.SilkS) (width 0.15))
  (fp_line (start 1.22936 -0.46736) (end 3.76936 -0.46736) (layer F.SilkS) (width 0.15))
  (fp_arc (start 2.49936 -2.49936) (end 3.76936 -5.42036) (angle 90) (layer F.SilkS) (width 0.15))
  (fp_arc (start 2.49936 -2.49936) (end -0.42164 -1.22936) (angle 90) (layer F.SilkS) (width 0.15))
  (fp_line (start 4.53136 -5.80136) (end 3.64236 -5.80136) (layer F.SilkS) (width 0.15))
  (fp_line (start 1.35636 -5.80136) (end 0.46736 -5.80136) (layer F.SilkS) (width 0.15))
  (fp_line (start 4.15036 -2.88036) (end 4.65836 -2.88036) (layer F.SilkS) (width 0.15))
  (fp_line (start 4.65836 -2.88036) (end 4.65836 -2.11836) (layer F.SilkS) (width 0.15))
  (fp_line (start 4.65836 -2.11836) (end 4.15036 -2.11836) (layer F.SilkS) (width 0.15))
  (fp_line (start 0.84836 -2.88036) (end 0.34036 -2.88036) (layer F.SilkS) (width 0.15))
  (fp_line (start 0.34036 -2.88036) (end 0.34036 -2.11836) (layer F.SilkS) (width 0.15))
  (fp_line (start 0.34036 -2.11836) (end 0.84836 -2.11836) (layer F.SilkS) (width 0.15))
  (fp_line (start 3.00736 -2.24536) (end 4.15036 -2.24536) (layer F.SilkS) (width 0.15))
  (fp_line (start 3.00736 -2.75336) (end 4.15036 -2.75336) (layer F.SilkS) (width 0.15))
  (fp_line (start 1.99136 -2.24536) (end 0.84836 -2.24536) (layer F.SilkS) (width 0.15))
  (fp_line (start 1.99136 -2.75336) (end 0.84836 -2.75336) (layer F.SilkS) (width 0.15))
  (fp_line (start 2.75336 -2.11836) (end 2.75336 -0.84836) (layer F.SilkS) (width 0.15))
  (fp_line (start 2.24536 -2.11836) (end 2.24536 -0.84836) (layer F.SilkS) (width 0.15))
  (fp_line (start 1.99136 -2.88036) (end 1.99136 -2.11836) (layer F.SilkS) (width 0.15))
  (fp_line (start 1.99136 -2.11836) (end 3.00736 -2.11836) (layer F.SilkS) (width 0.15))
  (fp_line (start 3.00736 -2.11836) (end 3.00736 -2.88036) (layer F.SilkS) (width 0.15))
  (fp_line (start 3.00736 -2.88036) (end 1.99136 -2.88036) (layer F.SilkS) (width 0.15))
  (fp_line (start 0.46736 -5.80136) (end -0.80264 -4.40436) (layer F.SilkS) (width 0.15))
  (fp_line (start -0.80264 -4.40436) (end -0.80264 -2.49936) (layer F.SilkS) (width 0.15))
  (fp_line (start 4.53136 -5.80136) (end 5.80136 -4.40436) (layer F.SilkS) (width 0.15))
  (fp_line (start 5.80136 -4.40436) (end 5.80136 -2.49936) (layer F.SilkS) (width 0.15))
  (fp_line (start 5.54736 1.31064) (end 5.54736 1.56464) (layer F.SilkS) (width 0.15))
  (fp_line (start 5.54736 1.56464) (end 4.40436 1.56464) (layer F.SilkS) (width 0.15))
  (fp_line (start 4.40436 1.56464) (end 4.40436 1.31064) (layer F.SilkS) (width 0.15))
  (fp_line (start -0.54864 1.31064) (end -0.54864 1.56464) (layer F.SilkS) (width 0.15))
  (fp_line (start -0.54864 1.56464) (end 0.59436 1.56464) (layer F.SilkS) (width 0.15))
  (fp_line (start 0.59436 1.56464) (end 0.59436 1.31064) (layer F.SilkS) (width 0.15))
  (fp_line (start -0.80264 1.31064) (end 5.80136 1.31064) (layer F.SilkS) (width 0.15))
  (pad 2 thru_hole circle (at 2.4892 -5.9944) (size 2.49936 2.49936) (drill 1.19888) (layers *.Cu *.Mask F.SilkS))
  (pad 3 thru_hole circle (at 4.99872 0) (size 2.49936 2.49936) (drill 1.19888) (layers *.Cu *.Mask F.SilkS))
  (pad 1 thru_hole circle (at 0 0) (size 2.49936 2.49936) (drill 1.19888) (layers *.Cu *.Mask F.SilkS))
  (model Potentiometers.3dshapes/Potentiometer_Triwood_RM-065.wrl
    (at (xyz 0 0 0))
    (scale (xyz 4 4 4))
    (rotate (xyz 0 0 0))
  )
)
