(module Resistor_Vertical_RM2mm (layer F.Cu) (tedit 5D400023)
  (descr "Resistor, Vertical, RM 2mm, 1/3W,")
  (tags "Resistor, Vertical, RM 2mm, 1/3W,")
  (fp_text reference REF** (at 2.70002 -3.29946) (layer F.SilkS)
    (effects (font (size 1 1) (thickness 0.15)))
  )
  (fp_text value Resistor_Vertical_RM2mm (at 0 4.50088) (layer F.Fab)
    (effects (font (size 1 1) (thickness 0.15)))
  )
  (fp_circle (center -2.54 0) (end -2.54 -1.27) (layer F.SilkS) (width 0.15))
  (fp_line (start -1.87706 0) (end -0.8763 0) (layer F.SilkS) (width 0.15))
  (pad 1 thru_hole circle (at -2.54 0) (size 1.5 1.5) (drill 0.8) (layers *.Cu *.SilkS *.Mask))
  (pad 2 thru_hole circle (at -0.635 0) (size 1.5 1.5) (drill 0.8) (layers *.Cu *.SilkS *.Mask))
)
