(module FK_222_SA (layer F.Cu) (tedit 5D515532)
  (fp_text reference REF** (at 4.455 2.772) (layer F.SilkS)
    (effects (font (size 1 1) (thickness 0.15)))
  )
  (fp_text value FK_222_SA (at 5.0165 -1.4605) (layer F.Fab)
    (effects (font (size 1 1) (thickness 0.15)))
  )
  (fp_line (start 17.653 9.3345) (end 16.637 9.3345) (layer F.SilkS) (width 0.15))
  (fp_line (start -7.6835 9.3345) (end -6.731 9.3345) (layer F.SilkS) (width 0.15))
  (fp_line (start -7.722 -3.366) (end 17.6405 -3.366) (layer F.SilkS) (width 0.15))
  (fp_line (start 17.6405 -3.366) (end 17.6405 9.347) (layer F.SilkS) (width 0.15))
  (fp_line (start 16.6095 9.347) (end 16.6095 -2.335) (layer F.SilkS) (width 0.15))
  (fp_line (start 16.6095 -2.335) (end -6.7545 -2.335) (layer F.SilkS) (width 0.15))
  (fp_line (start -6.7545 -2.335) (end -6.7545 9.347) (layer F.SilkS) (width 0.15))
  (fp_line (start -7.722 9.347) (end -7.722 -3.267) (layer F.SilkS) (width 0.15))
  (pad "" thru_hole circle (at -7.239 3.3655) (size 1.524 1.524) (drill 0.762) (layers *.Cu *.Mask F.SilkS))
  (pad "" thru_hole circle (at 17.145 3.3655) (size 1.524 1.524) (drill 0.762) (layers *.Cu *.Mask F.SilkS))
)
