(module HEAT-SINK-TO220-30x15x10 (layer F.Cu) (tedit 61601F9B)
  (fp_text reference REF** (at -4.699 3.937) (layer F.SilkS)
    (effects (font (size 1 1) (thickness 0.15)))
  )
  (fp_text value HEAT-SINK-TO220-30x15x10 (at 0 -5.207) (layer F.Fab)
    (effects (font (size 1 1) (thickness 0.15)))
  )
  (fp_line (start 1.524 -2.032) (end 1.524 0.254) (layer F.SilkS) (width 0.05))
  (fp_line (start -1.524 -2.032) (end -1.524 0.254) (layer F.SilkS) (width 0.05))
  (fp_line (start 1.778 0.254) (end 1.778 3.048) (layer F.SilkS) (width 0.15))
  (fp_line (start -1.778 3.048) (end -1.778 0.254) (layer F.SilkS) (width 0.15))
  (fp_line (start -0.762 0.254) (end -1.778 0.254) (layer F.SilkS) (width 0.15))
  (fp_line (start 1.778 0.254) (end 0.762 0.254) (layer F.SilkS) (width 0.15))
  (fp_line (start 4.572 -1.016) (end 5.842 -1.016) (layer F.SilkS) (width 0.15))
  (fp_line (start 2.54 -1.016) (end 3.81 -1.016) (layer F.SilkS) (width 0.15))
  (fp_line (start -3.81 -1.016) (end -2.54 -1.016) (layer F.SilkS) (width 0.15))
  (fp_line (start -5.842 -1.016) (end -4.572 -1.016) (layer F.SilkS) (width 0.15))
  (fp_line (start -5.842 -2.032) (end 5.842 -2.032) (layer F.SilkS) (width 0.15))
  (fp_line (start -1.778 3.048) (end -2.54 3.048) (layer F.SilkS) (width 0.15))
  (fp_line (start -2.54 3.048) (end -2.54 -1.016) (layer F.SilkS) (width 0.15))
  (fp_line (start -3.81 3.048) (end -4.572 3.048) (layer F.SilkS) (width 0.15))
  (fp_line (start -4.572 3.048) (end -4.572 -1.016) (layer F.SilkS) (width 0.15))
  (fp_line (start -3.81 -1.016) (end -3.81 3.048) (layer F.SilkS) (width 0.15))
  (fp_line (start 1.778 3.048) (end 2.54 3.048) (layer F.SilkS) (width 0.15))
  (fp_line (start 2.54 3.048) (end 2.54 -1.016) (layer F.SilkS) (width 0.15))
  (fp_line (start 3.81 3.048) (end 4.572 3.048) (layer F.SilkS) (width 0.15))
  (fp_line (start 5.842 -7.112) (end 6.604 -7.112) (layer F.SilkS) (width 0.15))
  (fp_line (start 5.842 3.048) (end 6.604 3.048) (layer F.SilkS) (width 0.15))
  (fp_line (start -6.604 3.048) (end -5.842 3.048) (layer F.SilkS) (width 0.15))
  (fp_line (start -5.842 -7.112) (end -6.604 -7.112) (layer F.SilkS) (width 0.15))
  (fp_line (start 3.81 -1.016) (end 3.81 3.048) (layer F.SilkS) (width 0.15))
  (fp_line (start 4.572 3.048) (end 4.572 -1.016) (layer F.SilkS) (width 0.15))
  (fp_line (start 5.842 3.048) (end 5.842 -1.016) (layer F.SilkS) (width 0.15))
  (fp_line (start 6.604 3.048) (end 6.604 -7.112) (layer F.SilkS) (width 0.15))
  (fp_line (start -6.604 -7.112) (end -6.604 3.048) (layer F.SilkS) (width 0.15))
  (fp_line (start -5.842 3.048) (end -5.842 -1.016) (layer F.SilkS) (width 0.15))
  (fp_line (start 5.842 -7.112) (end 5.842 -2.032) (layer F.SilkS) (width 0.15))
  (fp_line (start -5.842 -7.112) (end -5.842 -2.032) (layer F.SilkS) (width 0.15))
  (pad "" thru_hole circle (at 0 0) (size 1.524 1.524) (drill 0.762) (layers *.Cu *.Mask))
)
