(module Heatsink_HS-80_75x14mm (layer F.Cu) (tedit 59C66CBD)
  (fp_text reference HS1 (at 2.667 0.635) (layer F.SilkS)
    (effects (font (size 1 1) (thickness 0.15)))
  )
  (fp_text value HEATSINK (at 3.048 2.413) (layer F.Fab)
    (effects (font (size 1 1) (thickness 0.15)))
  )
  (fp_line (start 6.35 65.405) (end 6.35 -59.69) (layer F.SilkS) (width 0.15))
  (fp_line (start -7.62 -59.69) (end -7.62 65.405) (layer F.SilkS) (width 0.15))
  (fp_line (start -7.62 -59.69) (end 6.223 -59.69) (layer F.SilkS) (width 0.15))
  (fp_line (start -7.62 65.405) (end 6.223 65.405) (layer F.SilkS) (width 0.15))
)
