(module HeatSink-TO39 (layer F.Cu) (tedit 5874113F)
  (fp_text reference REF** (at 0 0.5) (layer F.SilkS)
    (effects (font (size 1 1) (thickness 0.15)))
  )
  (fp_text value HeatSink-TO39 (at 0 -0.5) (layer F.Fab)
    (effects (font (size 1 1) (thickness 0.15)))
  )
  (fp_circle (center -1.016 -4.064) (end 5.588 -4.318) (layer F.SilkS) (width 0.15))
  (fp_circle (center -1.016 -4.064) (end 3.048 -4.064) (layer F.SilkS) (width 0.15))
)
