(module RAD-DY-KY3 (layer F.Cu) (tedit 5A23C43A)
  (fp_text reference REF** (at 0 -0.635) (layer F.SilkS)
    (effects (font (size 1 1) (thickness 0.15)))
  )
  (fp_text value RAD-DY-KY3 (at 0 -3.175) (layer F.Fab)
    (effects (font (size 1 1) (thickness 0.15)))
  )
  (fp_line (start -10.795 0.762) (end 10.795 0.762) (layer F.SilkS) (width 0.15))
  (fp_line (start -3.175 -2.159) (end 3.175 -2.159) (layer F.SilkS) (width 0.15))
  (fp_line (start 10.795 0.762) (end 10.795 10.033) (layer F.SilkS) (width 0.15))
  (fp_line (start 11.557 10.033) (end 10.795 10.033) (layer F.SilkS) (width 0.15))
  (fp_line (start 11.557 0.762) (end 11.557 10.033) (layer F.SilkS) (width 0.15))
  (fp_line (start 14.605 0.762) (end 11.557 0.762) (layer F.SilkS) (width 0.15))
  (fp_line (start 14.605 0.762) (end 14.605 10.033) (layer F.SilkS) (width 0.15))
  (fp_line (start 15.367 10.033) (end 14.605 10.033) (layer F.SilkS) (width 0.15))
  (fp_line (start 15.367 3.048) (end 15.367 10.033) (layer F.SilkS) (width 0.15))
  (fp_line (start 19.177 3.048) (end 15.367 3.048) (layer F.SilkS) (width 0.15))
  (fp_line (start 20.066 10.033) (end 19.177 10.033) (layer F.SilkS) (width 0.15))
  (fp_line (start 19.177 3.048) (end 19.177 10.033) (layer F.SilkS) (width 0.15))
  (fp_line (start -10.795 0.762) (end -10.795 10.033) (layer F.SilkS) (width 0.15))
  (fp_line (start -10.795 10.033) (end -11.557 10.033) (layer F.SilkS) (width 0.15))
  (fp_line (start -11.557 0.762) (end -11.557 10.033) (layer F.SilkS) (width 0.15))
  (fp_line (start -14.605 10.033) (end -15.367 10.033) (layer F.SilkS) (width 0.15))
  (fp_line (start -14.605 0.762) (end -14.605 10.033) (layer F.SilkS) (width 0.15))
  (fp_line (start -11.557 0.762) (end -14.605 0.762) (layer F.SilkS) (width 0.15))
  (fp_line (start -15.367 3.048) (end -15.367 10.033) (layer F.SilkS) (width 0.15))
  (fp_line (start -19.177 10.033) (end -20.066 10.033) (layer F.SilkS) (width 0.15))
  (fp_line (start -15.367 3.048) (end -19.177 3.048) (layer F.SilkS) (width 0.15))
  (fp_line (start -19.177 3.048) (end -19.177 10.033) (layer F.SilkS) (width 0.15))
  (fp_line (start -3.175 -10.033) (end -3.175 -2.159) (layer F.SilkS) (width 0.15))
  (fp_line (start -3.175 -10.033) (end -3.937 -10.033) (layer F.SilkS) (width 0.15))
  (fp_line (start -3.937 -10.033) (end -3.937 -0.762) (layer F.SilkS) (width 0.15))
  (fp_line (start -3.937 -0.762) (end -6.985 -0.762) (layer F.SilkS) (width 0.15))
  (fp_line (start -6.985 -10.033) (end -6.985 -0.762) (layer F.SilkS) (width 0.15))
  (fp_line (start -6.985 -10.033) (end -7.747 -10.033) (layer F.SilkS) (width 0.15))
  (fp_line (start -7.747 -10.033) (end -7.747 -0.762) (layer F.SilkS) (width 0.15))
  (fp_line (start -7.747 -0.762) (end -10.795 -0.762) (layer F.SilkS) (width 0.15))
  (fp_line (start -10.795 -10.033) (end -10.795 -0.762) (layer F.SilkS) (width 0.15))
  (fp_line (start -10.795 -10.033) (end -11.557 -10.033) (layer F.SilkS) (width 0.15))
  (fp_line (start -11.557 -10.033) (end -11.557 -0.762) (layer F.SilkS) (width 0.15))
  (fp_line (start -11.557 -0.762) (end -14.605 -0.762) (layer F.SilkS) (width 0.15))
  (fp_line (start -14.605 -10.033) (end -14.605 -0.762) (layer F.SilkS) (width 0.15))
  (fp_line (start -14.605 -10.033) (end -15.367 -10.033) (layer F.SilkS) (width 0.15))
  (fp_line (start -15.367 -10.033) (end -15.367 -0.762) (layer F.SilkS) (width 0.15))
  (fp_line (start -15.367 -0.762) (end -19.177 -0.762) (layer F.SilkS) (width 0.15))
  (fp_line (start -19.177 -10.033) (end -19.177 -0.762) (layer F.SilkS) (width 0.15))
  (fp_line (start -19.177 -10.033) (end -20.066 -10.033) (layer F.SilkS) (width 0.15))
  (fp_line (start 3.175 -10.033) (end 3.175 -2.159) (layer F.SilkS) (width 0.15))
  (fp_line (start 3.937 -10.033) (end 3.175 -10.033) (layer F.SilkS) (width 0.15))
  (fp_line (start 3.937 -10.033) (end 3.937 -0.762) (layer F.SilkS) (width 0.15))
  (fp_line (start 6.985 -0.762) (end 3.937 -0.762) (layer F.SilkS) (width 0.15))
  (fp_line (start 6.985 -10.033) (end 6.985 -0.762) (layer F.SilkS) (width 0.15))
  (fp_line (start 7.747 -10.033) (end 6.985 -10.033) (layer F.SilkS) (width 0.15))
  (fp_line (start 7.747 -10.033) (end 7.747 -0.762) (layer F.SilkS) (width 0.15))
  (fp_line (start 10.795 -0.762) (end 7.747 -0.762) (layer F.SilkS) (width 0.15))
  (fp_line (start 10.795 -10.033) (end 10.795 -0.762) (layer F.SilkS) (width 0.15))
  (fp_line (start 11.557 -10.033) (end 10.795 -10.033) (layer F.SilkS) (width 0.15))
  (fp_line (start 11.557 -10.033) (end 11.557 -0.762) (layer F.SilkS) (width 0.15))
  (fp_line (start 14.605 -0.762) (end 11.557 -0.762) (layer F.SilkS) (width 0.15))
  (fp_line (start 20.066 -10.033) (end 19.177 -10.033) (layer F.SilkS) (width 0.15))
  (fp_line (start 19.177 -10.033) (end 19.177 -0.762) (layer F.SilkS) (width 0.15))
  (fp_line (start 19.177 -0.762) (end 15.367 -0.762) (layer F.SilkS) (width 0.15))
  (fp_line (start 15.367 -0.762) (end 15.367 -10.033) (layer F.SilkS) (width 0.15))
  (fp_line (start 15.367 -10.033) (end 14.605 -10.033) (layer F.SilkS) (width 0.15))
  (fp_line (start 14.605 -10.033) (end 14.605 -0.762) (layer F.SilkS) (width 0.15))
  (fp_line (start 20.066 -10.033) (end 20.066 10.033) (layer F.SilkS) (width 0.15))
  (fp_line (start -20.066 -10.033) (end -20.066 10.033) (layer F.SilkS) (width 0.15))
  (pad "" thru_hole circle (at -17.018 2.032) (size 1.524 1.524) (drill 0.762) (layers *.Cu *.Mask F.SilkS))
  (pad "" thru_hole circle (at 17.018 2.032) (size 1.524 1.524) (drill 0.762) (layers *.Cu *.Mask F.SilkS))
)
